ply
format ascii 1.0
comment Created by Blender 2.67 (sub 1) - www.blender.org, source file: 'Match_Created_By_Tyro_Smith.blend'
element vertex 24
property float x
property float y
property float z
property float nx
property float ny
property float nz
property float s
property float t
element face 6
property list uchar uint vertex_indices
end_header
-0.055763 -1.230702 0.006452 -1.000000 -0.000000 0.000000 0.000000 0.334353
-0.055763 -1.233160 0.117950 -1.000000 -0.000000 0.000000 0.332314 0.333333
-0.055763 0.808922 0.162971 -1.000000 -0.000000 0.000000 0.333333 0.665647
-0.055763 0.811380 0.051473 -1.000000 -0.000000 0.000000 0.001019 0.666667
-0.055763 0.811380 0.051473 0.000000 0.022041 -0.999757 0.665647 0.333333
0.055763 0.811380 0.051473 0.000000 0.022041 -0.999757 0.333333 0.332314
0.055763 -1.230702 0.006452 0.000000 0.022041 -0.999757 0.334353 0.000000
-0.055763 -1.230702 0.006452 0.000000 0.022041 -0.999757 0.666667 0.001020
0.055763 0.811380 0.051473 1.000000 -0.000000 0.000000 0.666667 0.665647
0.055763 0.808922 0.162971 1.000000 -0.000000 0.000000 0.334353 0.666667
0.055763 -1.233160 0.117950 1.000000 -0.000000 0.000000 0.333333 0.334353
0.055763 -1.230702 0.006452 1.000000 -0.000000 0.000000 0.665647 0.333333
-0.055763 -1.233160 0.117950 0.000000 -0.022041 0.999757 0.998981 0.333333
0.055763 -1.233160 0.117950 0.000000 -0.022041 0.999757 1.000000 0.665647
0.055763 0.808922 0.162971 0.000000 -0.022041 0.999757 0.667686 0.666667
-0.055763 0.808922 0.162971 0.000000 -0.022041 0.999757 0.666667 0.334353
-0.055763 -1.233160 0.117950 0.000000 -0.999757 -0.022042 0.001020 0.333333
-0.055763 -1.230702 0.006452 0.000000 -0.999757 -0.022042 0.000000 0.001020
0.055763 -1.230702 0.006452 0.000000 -0.999757 -0.022042 0.332314 0.000000
0.055763 -1.233160 0.117950 0.000000 -0.999757 -0.022042 0.333333 0.332314
0.055763 0.808922 0.162971 0.000000 0.999757 0.022041 0.666667 0.001020
0.055763 0.811380 0.051473 0.000000 0.999757 0.022041 0.998980 0.000000
-0.055763 0.811380 0.051473 0.000000 0.999757 0.022041 1.000000 0.332314
-0.055763 0.808922 0.162971 0.000000 0.999757 0.022041 0.667686 0.333333
4 0 1 2 3
4 4 5 6 7
4 8 9 10 11
4 12 13 14 15
4 16 17 18 19
4 20 21 22 23
