<?xml version="1.0" encoding="utf-8"?>
<COLLADA xmlns="http://www.collada.org/2005/11/COLLADASchema" version="1.4.1">
  <asset>
    <created>2001-01-01T01:01:01Z</created>
    <modified>2001-01-01T01:01:01Z</modified>
  </asset>
  <library_images>
    <image id="Image">
      <init_from>file:///Bomb_D.tga</init_from>
    </image>
  </library_images>
  <library_materials>
    <material id="VisualMaterial" name="Bomb__Bomb_D_tga">
      <instance_effect url="#Effect"/>
      <extra>
        <technique profile="FCOLLADA">
          <user_properties>Bomb__Bomb_D_tga</user_properties>
        </technique>
      </extra>
    </material>
  </library_materials>
  <library_effects>
    <effect id="Effect" name="Bomb_D_tga">
      <profile_COMMON>
        <newparam sid="Image-surface">
          <surface type="2D">
            <init_from>Image</init_from>
            <format>A8R8G8B8</format>
          </surface>
        </newparam>
        <newparam sid="Image-sampler">
          <sampler2D>
            <source>Image-surface</source>
            <wrap_s>WRAP</wrap_s>
            <wrap_t>WRAP</wrap_t>
            <minfilter>NONE</minfilter>
            <magfilter>NONE</magfilter>
            <mipfilter>NONE</mipfilter>
          </sampler2D>
        </newparam>
        <technique sid="common">
          <phong>
            <emission>
              <color>0 0 0 1</color>
            </emission>
            <ambient>
              <color>0 0 0 1</color>
            </ambient>
            <diffuse>
              <texture texture="Image-sampler" texcoord=""/>
            </diffuse>
            <specular>
              <color>1 1 1 1</color>
            </specular>
            <shininess>
              <float>0</float>
            </shininess>
            <transparent opaque="A_ONE">
              <color>0 0 0 1</color>
            </transparent>
            <transparency>
              <float>1</float>
            </transparency>
            <index_of_refraction>
              <float>1.55</float>
            </index_of_refraction>
          </phong>
          <extra>
            <technique profile="FCOLLADA">
              <spec_level>
                <float>0</float>
              </spec_level>
            </technique>
          </extra>
        </technique>
      </profile_COMMON>
      <extra>
        <technique profile="FCOLLADA">
          <user_properties>Bomb_D.tga</user_properties>
        </technique>
      </extra>
    </effect>
  </library_effects>
  <library_geometries>
    <geometry id="Geometry" name="Bomb">
      <mesh>
        <source id="GeometrySource" name="BombPos">
          <float_array id="GeometrySource-array" count="2658">-0.016289 -0.058632 0.146906 -0.012853 -0.063192 0.138309 -0.013046 -0.063223 0.150476 0.023157 -0.044857 0.136159 0.053584 -0.06224 0.123142 0.023157 -0.063577 0.136159 -0.013054 -0.045444 0.15052 0.026537 -0.063282 0.150406 0.059809 -0.062406 0.134981 0.059809 -0.046155 0.134981 0.026537 -0.044562 0.150406 -0.02595 -0.016849 0.251876 -0.025519 -0.017444 -0.2612 -0.014295 0.006097 -0.261374 -0.089753 -0.081453 -0.016578 -0.096523 -0.029266 -0.018119 -0.078653 -0.081003 -0.035413 -0.087864 -0.027756 -0.041314 -0.084118 -0.027339 -0.042325 -0.093711 -0.028682 -0.017031 0.05294 0.007309 0.251876 0.057169 0.02605 -0.260538 0.059743 0.021554 0.252214 0.042624 -0.010243 0.251876 0.027919 -0.02179 -0.2612 0.043218 -0.010675 -0.2612 0.027693 -0.021091 0.251876 -0.074485 0.090245 -0.02424 -0.092289 0.084493 -0.047217 -0.09227 0.084466 -0.02438 -0.045033 0.084465 -0.023791 -0.074485 0.08985 0.251876 -0.04506 0.084146 0.251876 -0.092037 0.084146 0.251876 -0.102886 0.069215 0.251876 -0.103262 0.069337 -0.024806 -0.102954 0.055153 0.201764 -0.102919 0.050748 0.227512 -0.102886 0.050759 0.251876 -0.103206 0.055043 0.229592 -0.013567 0.032293 -0.324671 -0.00901 0.051565 -0.304455 -0.011145 0.03008 -0.321841 -0.011579 0.054393 -0.306007 -0.015558 0.050069 -0.303008 -0.014932 0.057828 -0.292618 -0.011281 0.063365 -0.295018 -0.011183 0.065815 -0.282655 -0.008371 0.062548 -0.282374 -0.011869 0.063614 -0.260852 -0.014804 0.059855 -0.282146 -0.008514 0.060133 -0.294139 -0.011869 0.063614 -0.239393 -0.009057 0.060347 -0.26064 -0.009057 0.060347 -0.239278 -0.015491 0.057654 -0.260543 -0.075226 0.062714 -0.301193 -0.079983 0.060841 -0.289298 -0.077088 0.064034 -0.288975 -0.077954 0.059421 -0.301939 -0.070649 0.054231 -0.311685 -0.068151 0.057705 -0.311259 -0.052409 0.042451 -0.326167 -0.050251 0.04618 -0.32617 -0.03099 0.037841 -0.328053 -0.075876 0.055786 -0.300408 -0.074923 0.063239 -0.24203 -0.077819 0.060046 -0.242152 -0.077841 0.057101 -0.288769 -0.075677 0.056306 -0.241958 -0.068895 0.051139 -0.309444 -0.050568 0.039954 -0.322924 -0.031983 0.03392 -0.328878 -0.022907 0.035373 -0.326629 -0.023536 0.031392 -0.327754 -0.012519 0.029417 -0.324796 -0.001986 0.028772 -0.324444 -0.012519 0.026765 -0.321401 -0.023052 0.028772 -0.324444 -0.031176 0.031329 -0.325636 -0.012519 0.033466 -0.323333 -0.001502 0.031392 -0.327754 0.016461 0.035436 -0.325021 0.017748 0.037984 -0.328262 0.02737 0.042451 -0.326167 0.043113 0.057705 -0.311259 0.04561 0.054231 -0.311685 0.025212 0.04618 -0.32617 0.016215 0.041816 -0.327833 -0.002132 0.035373 -0.326629 0.052049 0.064034 -0.288975 0.05278 0.060046 -0.242152 0.054945 0.060841 -0.289298 0.050187 0.062714 -0.301193 0.052803 0.057101 -0.288769 0.043856 0.051139 -0.309444 0.025529 0.039954 -0.322924 0.052916 0.059421 -0.301939 0.050838 0.055786 -0.300408 0.049885 0.063239 -0.24203 0.019598 0.003821 -0.241045 0.020819 0.001865 -0.285404 0.023352 0.005352 -0.285299 0.022131 0.007308 -0.24097 0.016719 0.003197 -0.28496 0.015498 0.005153 -0.240805 0.021679 0.006904 -0.29687 0.019014 0.00356 -0.297429 0.008529 0.019484 -0.315369 -0.008316 0.031726 -0.324999 0.002583 0.017343 -0.312851 0.00545 0.016505 -0.315556 0.015031 0.004851 -0.296087 -0.010934 0.02938 -0.324889 -0.061422 -0.076763 0.130102 -0.052556 -0.087192 0.121382 -0.061167 -0.079124 0.132685 -0.053215 -0.084747 0.119723 -0.03868 -0.075297 0.142787 -0.024192 -0.0868 0.126407 -0.022465 -0.083264 0.126709 -0.037381 -0.085102 0.103711 -0.105306 0.050232 0.202369 -0.035444 -0.072106 0.142493 -0.104787 0.05078 0.226007 0.07619 -0.024411 -0.016288 0.074271 -0.024522 -0.025239 -0.00435 -0.019205 0.02267 0.055618 -0.024522 -0.047189 -0.093927 -0.024522 0.043938 -0.082971 -0.024522 0.070578 -0.064318 -0.024522 0.092528 -0.032827 -0.024522 0.108825 -0.003814 0.033908 0.322035 -0.011782 0.02594 0.324558 -0.011831 0.034046 0.32358 -0.003765 0.025802 0.323012 -0.010559 0.026922 0.332813 -0.010375 0.0356 0.332865 -0.00496 0.020699 0.348007 0.002442 0.020507 0.344568 -0.002697 0.027116 0.352521 -0.006601 0.033697 0.343168 -0.007895 0.025419 0.34109 -0.001994 0.026717 0.330734 0.000387 0.024764 0.338545 0.004705 0.026924 0.349081 0.00171 0.033211 0.340481 -0.001902 0.035409 0.330629 -0.013169 0.063615 0.239393 -0.016667 0.062549 0.282374 -0.013856 0.065816 0.282655 -0.013758 0.063366 0.295018 -0.016524 0.060134 0.294139 -0.013459 0.054394 0.306007 -0.016028 0.051566 0.304455 -0.011472 0.032294 0.324671 -0.013893 0.030081 0.321841 -0.00948 0.05007 0.303008 -0.015981 0.060348 0.239278 -0.010234 0.059856 0.282146 -0.010106 0.057829 0.292618 -0.009547 0.057655 0.239222 0.094268 -0.042034 0.10635 0.105306 -0.055877 0.081494 0.099211 -0.058103 0.106203 0.090437 -0.074045 0.103866 0.098509 -0.07522 0.079966 0.083574 -0.085602 0.078449 0.091752 -0.075169 0.104452 0.078911 -0.084811 0.102089 0.100985 -0.058275 0.106884 0.071111 -0.087103 0.07581 0.050295 -0.088946 0.099339 0.078448 -0.083001 0.101849 0.095898 -0.041299 0.106919 0.102913 -0.03786 0.083116 0.084076 -0.02953 0.107255 0.088659 -0.024057 0.08372 0.085053 -0.028002 0.107733 0.049885 0.06324 0.24203 0.052049 0.064035 0.288975 0.05278 0.060047 0.242152 0.052803 0.057102 0.288769 0.054945 0.060842 0.289298 0.050187 0.062715 0.301193 0.050838 0.055787 0.300408 0.043113 0.057706 0.311259 0.043856 0.05114 0.309444 0.025212 0.046181 0.32617 -0.001501 0.031393 0.327754 -0.012519 0.033467 0.323333 -0.012519 0.029418 0.324796 0.006945 0.033921 0.328878 0.006137 0.03133 0.325636 0.025529 0.039955 0.322924 0.02737 0.042452 0.326167 0.04561 0.054232 0.311685 0.052916 0.059422 0.301939 0.005951 0.037842 0.328053 -0.002131 0.035374 0.326629 -0.001985 0.028773 0.324444 -0.012519 0.026766 0.321401 -0.077954 0.059422 0.301939 -0.068895 0.05114 0.309444 -0.070649 0.054232 0.311685 -0.050568 0.039955 0.322924 -0.052409 0.042452 0.326167 -0.023536 0.031393 0.327754 -0.022907 0.035374 0.326629 -0.023052 0.028773 0.324444 -0.050251 0.046181 0.32617 -0.068151 0.057706 0.311259 -0.075226 0.062715 0.301193 -0.079983 0.060842 0.289298 -0.077088 0.064035 0.288975 -0.075876 0.055787 0.300408 -0.077819 0.060047 0.242152 -0.074923 0.06324 0.24203 -0.077841 0.057102 0.288769 -0.075677 0.056307 0.241958 0.079141 0.070427 -0.033226 0.079407 0.069593 0.001183 0.082603 0.052344 -0.028767 0.082702 0.053335 0.004657 -0.017143 0.025418 -0.34109 -0.020077 0.020698 -0.348007 -0.02234 0.027115 -0.352521 -0.018436 0.033696 -0.343168 -0.023135 0.035408 -0.330629 -0.014663 0.035599 -0.332865 -0.013208 0.034045 -0.32358 -0.01448 0.026921 -0.332813 -0.023043 0.026716 -0.330734 -0.025426 0.024763 -0.338545 -0.026748 0.03321 -0.340481 -0.029743 0.026923 -0.349081 -0.017959 0.029461 -0.320498 0.015031 0.004852 0.296087 0.005451 0.016506 0.315556 0.002584 0.017344 0.312851 0.019014 0.003561 0.297429 0.020819 0.001866 0.285404 0.016719 0.003198 0.28496 0.00853 0.019485 0.315369 -0.010934 0.029381 0.324889 -0.013236 0.030435 0.322448 -0.008315 0.031727 0.324999 0.021679 0.006905 0.29687 0.019598 0.003822 0.241045 0.015498 0.005154 0.240805 -0.016039 0.032941 -0.322626 -0.032606 0.022163 -0.312528 -0.014104 0.02938 -0.324889 -0.03049 0.016505 -0.315556 -0.044381 0.010262 -0.295173 -0.044052 0.00356 -0.297429 -0.045857 0.001865 -0.285404 -0.045857 0.008839 -0.284786 -0.044636 0.003821 -0.241045 -0.049072 0.004896 -0.285299 -0.044636 0.010795 -0.240676 -0.04717 0.007308 -0.24097 -0.047655 0.006391 -0.297454 -0.034746 0.018903 -0.316419 -0.016722 0.031726 -0.324999 -0.044636 0.003822 0.241045 -0.045857 0.001866 0.285404 -0.048391 0.005353 0.285299 -0.04717 0.007309 0.24097 -0.046717 0.006905 0.29687 -0.044052 0.003561 0.297429 -0.033569 0.019485 0.315369 -0.016722 0.031727 0.324999 -0.027623 0.017343 0.312851 -0.040069 0.004852 0.296087 -0.03049 0.016506 0.315556 -0.041758 0.003198 0.28496 -0.014104 0.029381 0.324889 0.008448 -0.045165 0.153281 0.008413 -0.023922 0.108652 0.01199 -0.049659 0.153301 0.004937 -0.020005 0.111668 0.010729 -0.02079 0.110512 0.014261 -0.046326 0.153678 0.011306 -0.046361 0.166841 0.00559 -0.045761 0.165272 -0.003868 -0.038031 0.193805 0.009296 -0.050173 0.167097 -0.000471 -0.041814 0.197073 -0.014187 -0.017385 0.248243 -0.010391 -0.022004 0.249126 -0.005997 -0.006552 0.29771 -0.010074 -0.00209 0.297749 0.005486 -0.002815 0.337922 0.002321 0.002139 0.337904 0.006966 0.000776 0.346992 0.003392 0.004943 0.344487 0.003047 0.008684 0.347639 0.006549 0.007972 0.353081 0.000907 0.015808 0.349482 0.009081 0.008864 0.350098 0.006636 0.016602 0.352018 0.003272 0.02579 0.347844 -0.001491 0.023077 0.3463 0.003683 0.016613 0.354834 -0.000661 0.026792 0.350134 -0.008319 -0.018393 0.247985 0.018127 0.070175 0.251876 0.069855 0.035828 0.251876 0.077847 0.050759 0.251876 0.019454 0.084146 0.251876 -0.04416 0.069215 0.251876 0.05407 0.007308 -0.2612 0.009009 -0.02179 -0.2612 -0.006289 -0.010675 -0.2612 -0.043982 0.069441 -0.2612 -0.04501 0.084739 -0.2612 0.018304 0.069117 -0.26145 -0.074485 0.090583 -0.2612 -0.092469 0.084739 -0.2612 -0.081002 0.018183 -0.261474 -0.043503 -0.023288 -0.2612 -0.061487 -0.017444 -0.2612 -0.072602 -0.002146 -0.2612 -0.015877 -0.033073 -0.089916 -0.006266 -0.036833 -0.137419 -0.012204 -0.033561 -0.089727 -0.010269 -0.037578 -0.138554 -0.016822 -0.019065 -0.061249 -0.010899 -0.021731 -0.060118 -0.014506 -0.022198 -0.059389 -0.012048 -0.034175 -0.137617 -0.016782 -0.029187 -0.091566 -0.003404 -0.02542 -0.198877 -0.001416 -0.029185 -0.199594 -0.005203 -0.015207 -0.248828 -0.003132 -0.018819 -0.249969 -0.009333 -0.007305 -0.279162 -0.007695 -0.011583 -0.280445 -0.015617 -0.003463 -0.29917 -0.013811 -0.007323 -0.299858 0.001945 -0.029179 -0.198026 0.00052 -0.018199 -0.250152 -0.002476 -0.009915 -0.280628 -0.009735 -0.002861 -0.299897 -0.022798 -0.004113 -0.313847 -0.018777 0.000378 -0.31426 -0.02736 0.002138 -0.337904 -0.024634 -0.000236 -0.313361 -0.025945 0.015807 -0.349482 -0.031587 0.007971 -0.353081 -0.028722 0.016612 -0.354834 -0.028085 0.008683 -0.347639 -0.032005 0.000775 -0.346992 -0.028431 0.004942 -0.344487 -0.030525 -0.002816 -0.337922 -0.033042 0.000713 -0.337267 -0.024377 0.026791 -0.350134 -0.023546 0.023076 -0.3463 -0.028311 0.025789 -0.347844 -0.031674 0.016601 -0.352018 -0.034119 0.008863 -0.350098 -0.034505 0.0037 -0.345152 -0.068831 -0.053888 0.131775 -0.052681 -0.053888 0.144837 -0.065308 -0.042277 0.133125 -0.056085 -0.035101 0.136659 -0.044684 -0.035101 0.141028 -0.065308 -0.065499 0.133125 -0.053594 -0.023489 0.119618 -0.035148 -0.023489 0.126687 -0.035461 -0.042277 0.144563 -0.031939 -0.053888 0.145913 -0.035461 -0.065499 0.144563 -0.044684 -0.072675 0.141028 -0.035148 -0.084286 0.126687 -0.056085 -0.072675 0.136659 -0.053594 -0.084286 0.119618 -0.00435 -0.085418 0.02267 -0.064318 -0.084058 0.092528 -0.082971 -0.084058 0.070578 0.016918 -0.084058 0.112247 -0.0116 -0.085376 0.111942 -0.011804 -0.084058 0.114435 0.016918 -0.024522 0.112247 -0.093927 -0.084058 0.043938 -0.096115 -0.084058 0.015216 -0.088339 -0.084525 -0.014385 -0.088383 -0.081852 -0.014314 -0.075471 -0.083768 -0.036222 -0.052258 -0.084058 -0.055951 -0.096115 -0.024522 0.015216 0.031096 -0.024522 -0.062301 0.003103 -0.084058 -0.069096 -0.015232 -0.025415 -0.067868 -0.025618 -0.084058 -0.066908 0.074271 -0.084058 -0.025239 0.080358 -0.024026 -0.014697 0.085227 -0.084058 0.001401 0.031096 -0.084058 -0.062301 0.055618 -0.084058 -0.047189 0.071149 -0.08516 0.075996 0.080621 -0.024522 0.058115 0.066124 -0.021773 0.084211 0.080621 -0.084058 0.058115 0.087415 -0.084058 0.030123 0.086732 -0.024507 0.016699 0.083648 -0.023994 0.017764 0.087415 -0.024522 0.030123 0.021048 -0.056984 0.120696 0.017272 -0.056984 0.104794 0.021048 -0.054486 0.120696 0.013252 -0.054486 0.105748 0.017028 -0.056984 0.121651 0.017028 -0.054486 0.121651 -0.096517 -0.059321 -0.068409 -0.096517 -0.050976 -0.068409 -0.093964 -0.050974 -0.074658 -0.093964 -0.059323 -0.074658 -0.08224 -0.058818 -0.061772 -0.075272 -0.058818 -0.064667 -0.075272 -0.051478 -0.064667 -0.07086 -0.050522 -0.049077 -0.07086 -0.059775 -0.049077 -0.063695 -0.063588 -0.045903 -0.067269 -0.063588 -0.040773 -0.077179 -0.059775 -0.045652 -0.077179 -0.050522 -0.045652 -0.08224 -0.051478 -0.061772 -0.063695 -0.046709 -0.045903 -0.067269 -0.046709 -0.040773 0.00423 -0.057801 0.123607 0.034314 -0.057801 0.120711 0.005184 -0.057801 0.127628 0.005184 -0.053669 0.127628 0.033359 -0.053669 0.116691 0.034314 -0.053669 0.120711 0.033359 -0.057801 0.116691 0.075694 -0.053888 0.120358 0.078234 -0.065499 0.117568 0.09374 -0.053888 0.110072 0.078234 -0.042277 0.117568 0.084884 -0.0351 0.110265 0.084884 -0.072675 0.110265 0.05916 -0.072675 0.113558 0.093104 -0.072675 0.101237 0.098548 -0.065231 0.093569 0.101444 -0.053879 0.090887 0.092034 -0.035765 0.099059 0.09863 -0.042267 0.093126 0.093978 -0.072675 0.075318 0.098088 -0.053888 0.070804 0.02281 -0.059775 -0.071317 0.023335 -0.063588 -0.062286 0.017837 -0.063588 -0.065261 0.02281 -0.050521 -0.071317 0.019744 -0.058818 -0.087227 0.031948 -0.059323 -0.104554 0.031948 -0.050974 -0.104554 0.027268 -0.058818 -0.087773 0.037038 -0.059321 -0.100119 0.037038 -0.050976 -0.100119 0.027268 -0.051478 -0.087773 0.029994 -0.050521 -0.071098 0.029994 -0.059775 -0.071098 0.023335 -0.046709 -0.062286 0.066219 -0.05865 0.118761 0.060893 -0.05847 0.129306 0.058087 -0.05847 0.12429 0.073218 -0.05865 0.119384 0.073218 -0.04993 0.119384 0.060893 -0.049919 0.129306 0.066219 -0.04993 0.118761 0.058087 -0.049919 0.12429 -0.020115 -0.090584 -0.00214 0.003733 -0.090584 0.025875 -0.002656 -0.090584 0.031314 -0.026504 -0.090584 0.003298 -0.03673 -0.090584 -0.013825 -0.035385 -0.090584 -0.014971 -0.09869 0.04413 -0.048399 -0.103584 0.050531 -0.2612 -0.092469 0.035233 -0.2612 -0.103822 0.052292 -0.046707 -0.103584 0.069441 -0.2612 -0.103292 0.069347 -0.04645 -0.012519 0.090583 -0.2612 -0.045031 0.084496 -0.05051 -0.012519 0.09028 -0.048995 0.049446 0.090583 -0.2612 0.049446 0.090268 -0.040877 0.06743 0.084739 -0.2612 0.067241 0.08448 -0.036362 -0.024192 -0.04993 0.140227 -0.016032 -0.058632 0.14105 -0.024192 -0.05865 0.140227 -0.016032 -0.049912 0.14105 0.009467 0.003701 0.345152 0.008003 0.000714 0.337267 -0.00419 -0.002692 0.297022 0.001516 -0.038049 0.196356 -0.053356 -0.055326 0.142415 -0.038431 -0.052828 0.106279 -0.038431 -0.055326 0.106279 -0.049537 -0.055326 0.143992 -0.034612 -0.055326 0.107856 -0.049537 -0.052828 0.143992 -0.034612 -0.052828 0.107856 -0.068517 -0.072675 0.113899 -0.074218 -0.053888 0.111715 -0.051871 -0.053888 0.142721 -0.068517 -0.035101 0.113899 0.093254 -0.052828 0.107606 0.063678 -0.055326 0.082035 0.063678 -0.052828 0.082035 0.093254 -0.055326 0.107606 0.090551 -0.055326 0.110731 0.060976 -0.055326 0.085161 -0.048993 -0.088804 0.060431 -0.031648 -0.088804 0.050466 -0.048168 -0.088804 0.061399 -0.035561 -0.088804 0.045868 0.004109 -0.088804 0.020029 0.000196 -0.088804 0.015431 0.069877 -0.02482 0.101741 0.092064 -0.053888 0.108547 0.05916 -0.035101 0.113558 0.05505 -0.053888 0.118072 0.069919 -0.084286 0.101741 0.083473 -0.083184 0.087135 0.093978 -0.0351 0.075318 0.083177 -0.02482 0.087135 -0.01286 -0.045414 0.138353 -0.016032 -0.058632 0.14105 -0.016032 -0.049912 0.14105 0.053584 -0.045989 0.123142 0.058087 -0.049919 0.12429 0.058087 -0.05847 0.12429 0.060893 -0.05847 0.129306 -0.016289 -0.049912 0.146906 0.023157 -0.044857 0.136159 -0.01286 -0.045414 0.138353 -0.016032 -0.049912 0.14105 0.053584 -0.045989 0.123142 0.060893 -0.049919 0.129306 0.058087 -0.049919 0.12429 -0.081002 0.018183 -0.261474 -0.098934 0.044169 -0.02047 -0.092037 0.035828 0.251876 -0.10346 0.050842 0.199683 -0.079015 0.019829 0.251652 -0.072602 -0.002146 -0.2612 -0.071904 -0.001918 0.251876 -0.061056 -0.016849 0.251876 -0.061487 -0.017444 -0.2612 -0.043503 -0.023288 -0.2612 -0.043503 -0.022553 0.251876 -0.013582 0.00304 0.252498 -0.084118 -0.027339 -0.042325 -0.09869 0.04413 -0.048399 -0.098934 0.044169 -0.02047 -0.09869 0.04413 -0.048399 -0.103822 0.052292 -0.046707 -0.103378 0.052365 -0.024384 -0.075398 -0.080362 -0.036284 -0.088383 -0.081852 -0.014314 -0.088339 -0.084525 -0.014385 -0.075471 -0.083768 -0.036222 -0.075398 -0.080362 -0.036284 -0.005694 -0.010243 0.251876 0.009009 -0.02179 -0.2612 0.009237 -0.021091 0.251876 -0.006289 -0.010675 -0.2612 -0.014295 0.006097 -0.261374 -0.013582 0.00304 0.252498 0.069855 0.035828 0.251876 0.06743 0.035233 -0.2612 0.05407 0.007308 -0.2612 0.078186 0.066257 -0.033195 0.078545 0.069441 -0.2612 0.079141 0.070427 -0.033226 0.078545 0.050531 -0.2612 0.079234 0.052222 -0.030785 0.079343 0.052491 0.0058 0.077847 0.050759 0.251876 0.077847 0.069215 0.251876 0.07853 0.065739 0.003236 0.079407 0.069593 0.001183 0.019435 0.084492 -0.047103 -0.012519 0.090244 -0.023443 0.019437 0.084462 -0.020693 0.049446 0.090226 -0.011166 0.067215 0.084444 -0.005496 -0.103378 0.052365 -0.024384 -0.074485 0.090279 -0.048256 0.07853 0.065739 0.003236 0.079234 0.052222 -0.030785 0.079343 0.052491 0.0058 0.078186 0.066257 -0.033195 -0.015491 0.057654 -0.260543 -0.015491 0.057654 -0.239222 -0.014804 0.059855 -0.282146 -0.014932 0.057828 -0.292618 -0.015558 0.050069 -0.303008 -0.017959 0.029461 -0.320498 -0.015491 0.057654 -0.239222 -0.068895 0.051139 -0.309444 -0.050568 0.039954 -0.322924 -0.077841 0.057101 -0.288769 -0.075677 0.056306 -0.241958 -0.075876 0.055786 -0.300408 0.025529 0.039954 -0.322924 0.016461 0.035436 -0.325021 -0.001986 0.028772 -0.324444 -0.012519 0.026765 -0.321401 -0.023052 0.028772 -0.324444 -0.031176 0.031329 -0.325636 0.050838 0.055786 -0.300408 0.052803 0.057101 -0.288769 0.050638 0.056306 -0.241958 0.043856 0.051139 -0.309444 0.050638 0.056306 -0.241958 0.015031 0.004851 -0.296087 -0.013236 0.030434 -0.322448 0.016719 0.003197 -0.28496 0.015498 0.005153 -0.240805 0.002583 0.017343 -0.312851 -0.013236 0.030434 -0.322448 -0.102919 0.050748 0.227512 -0.035444 -0.072106 0.142493 -0.10346 0.050842 0.199683 -0.011804 -0.084058 0.114435 -0.0116 -0.085376 0.111942 -0.04142 -0.08405 0.105919 -0.022465 -0.083264 0.126709 -0.011804 -0.084058 0.114435 -0.102954 0.055153 0.201764 -0.103206 0.055043 0.229592 -0.102919 0.050748 0.227512 -0.011804 -0.024522 0.114435 0.016918 -0.024522 0.112247 0.031096 -0.024522 -0.062301 -0.015232 -0.025415 -0.067868 -0.052258 -0.024522 -0.055951 -0.074209 -0.024522 -0.037299 -0.089321 -0.024522 -0.012776 -0.096115 -0.024522 0.015216 0.087415 -0.024522 0.030123 0.083648 -0.023994 0.017764 0.035791 -0.022567 0.106238 0.037254 -0.025488 0.105936 0.06548 -0.019179 0.085299 0.080621 -0.024522 0.058115 0.066124 -0.021773 0.084211 -0.001902 0.035409 0.330629 -0.011782 0.02594 0.324558 0.00171 0.033211 0.340481 0.004705 0.026924 0.349081 -0.00496 0.020699 0.348007 0.002442 0.020507 0.344568 -0.003814 0.033908 0.322035 -0.003765 0.025802 0.323012 -0.00948 0.05007 0.303008 -0.007078 0.029462 0.320498 -0.010106 0.057829 0.292618 -0.010234 0.059856 0.282146 -0.009547 0.057655 0.239222 -0.007078 0.029462 0.320498 0.078448 -0.083001 0.101849 0.071149 -0.08516 0.075996 0.050279 -0.086993 0.09931 0.050279 -0.086993 0.09931 0.090437 -0.074045 0.103866 0.099211 -0.058103 0.106203 0.066124 -0.021773 0.084211 0.06548 -0.019179 0.085299 0.084076 -0.02953 0.107255 0.094268 -0.042034 0.10635 0.037254 -0.025488 0.105936 0.068214 -0.024311 0.107455 0.068375 -0.022482 0.108018 0.068214 -0.024311 0.107455 0.037254 -0.025488 0.105936 0.035791 -0.022567 0.106238 0.050638 0.056307 0.241958 0.052803 0.057102 0.288769 0.050638 0.056307 0.241958 0.025529 0.039955 0.322924 -0.001985 0.028773 0.324444 0.050838 0.055787 0.300408 0.043856 0.05114 0.309444 0.006137 0.03133 0.325636 -0.023052 0.028773 0.324444 -0.050568 0.039955 0.322924 -0.075876 0.055787 0.300408 -0.012519 0.026766 0.321401 -0.068895 0.05114 0.309444 -0.077841 0.057102 0.288769 -0.075677 0.056307 0.241958 0.07619 -0.024411 -0.016288 0.079234 0.052222 -0.030785 0.080358 -0.024026 -0.014697 0.07619 -0.024411 -0.016288 0.083648 -0.023994 0.017764 0.086732 -0.024507 0.016699 0.078186 0.066257 -0.033195 -0.020077 0.020698 -0.348007 -0.02748 0.020506 -0.344568 -0.029743 0.026923 -0.349081 -0.02748 0.020506 -0.344568 -0.026748 0.03321 -0.340481 -0.021224 0.033907 -0.322035 -0.013256 0.025939 -0.324558 -0.021273 0.025801 -0.323012 -0.013256 0.025939 -0.324558 -0.021273 0.025801 -0.323012 -0.021224 0.033907 -0.322035 -0.023135 0.035408 -0.330629 0.022131 0.007309 0.24097 0.023352 0.005353 0.285299 0.021679 0.006905 0.29687 -0.008315 0.031727 0.324999 0.00853 0.019485 0.315369 0.023352 0.005353 0.285299 0.022131 0.007309 0.24097 -0.016722 0.031726 -0.324999 -0.034746 0.018903 -0.316419 -0.047655 0.006391 -0.297454 -0.04717 0.007308 -0.24097 -0.049072 0.004896 -0.285299 -0.041758 0.003198 0.28496 -0.040537 0.005154 0.240805 -0.011802 0.030435 0.322448 -0.040069 0.004852 0.296087 -0.040537 0.005154 0.240805 -0.027623 0.017343 0.312851 -0.011802 0.030435 0.322448 0.014261 -0.046326 0.153678 0.010729 -0.02079 0.110512 0.003272 0.02579 0.347844 0.006636 0.016602 0.352018 0.009081 0.008864 0.350098 0.009467 0.003701 0.345152 0.008003 0.000714 0.337267 -0.00419 -0.002692 0.297022 0.001516 -0.038049 0.196356 0.011306 -0.046361 0.166841 -0.013582 0.00304 0.252498 0.059743 0.021554 0.252214 -0.005694 -0.010243 0.251876 0.009237 -0.021091 0.251876 0.027693 -0.021091 0.251876 0.042624 -0.010243 0.251876 0.05294 0.007309 0.251876 0.077847 0.069215 0.251876 0.066999 0.084146 0.251876 0.049446 0.08985 0.251876 -0.012519 0.08985 0.251876 -0.04506 0.084146 0.251876 -0.074485 0.08985 0.251876 -0.092037 0.084146 0.251876 -0.102886 0.069215 0.251876 -0.102886 0.050759 0.251876 -0.092037 0.035828 0.251876 -0.079015 0.019829 0.251652 -0.071904 -0.001918 0.251876 -0.02595 -0.016849 0.251876 -0.043503 -0.022553 0.251876 -0.061056 -0.016849 0.251876 0.043218 -0.010675 -0.2612 0.027919 -0.02179 -0.2612 -0.014295 0.006097 -0.261374 0.057169 0.02605 -0.260538 0.06743 0.035233 -0.2612 0.078545 0.050531 -0.2612 0.078545 0.069441 -0.2612 0.06743 0.084739 -0.2612 0.049446 0.090583 -0.2612 0.019422 0.084739 -0.2612 -0.012519 0.090583 -0.2612 -0.103584 0.069441 -0.2612 -0.103584 0.050531 -0.2612 -0.092469 0.035233 -0.2612 -0.025519 -0.017444 -0.2612 -0.005203 -0.015207 -0.248828 -0.003404 -0.02542 -0.198877 -0.012048 -0.034175 -0.137617 -0.016782 -0.029187 -0.091566 -0.016822 -0.019065 -0.061249 -0.033042 0.000713 -0.337267 -0.015617 -0.003463 -0.29917 -0.009333 -0.007305 -0.279162 -0.024634 -0.000236 -0.313361 -0.034505 0.0037 -0.345152 -0.034119 0.008863 -0.350098 -0.031674 0.016601 -0.352018 -0.028311 0.025789 -0.347844 -0.074218 -0.053888 0.111715 -0.068517 -0.035101 0.113899 -0.020225 -0.035101 0.132406 -0.014525 -0.053888 0.134591 -0.020225 -0.072675 0.132406 -0.068517 -0.072675 0.113899 -0.037381 -0.085102 0.103711 -0.04142 -0.08405 0.105919 -0.032827 -0.024522 0.108825 -0.064318 -0.024522 0.092528 -0.082971 -0.024522 0.070578 -0.011804 -0.024522 0.114435 -0.075398 -0.080362 -0.036284 -0.052258 -0.024522 -0.055951 -0.074209 -0.024522 -0.037299 -0.089321 -0.024522 -0.012776 -0.093927 -0.024522 0.043938 0.074271 -0.024522 -0.025239 0.055618 -0.024522 -0.047189 0.050279 -0.086993 0.09931 0.037254 -0.025488 0.105936 0.071111 -0.087103 0.07581 0.07619 -0.024411 -0.016288 0.050295 -0.088946 0.099339 0.017028 -0.056984 0.121651 0.013252 -0.056984 0.105748 0.017272 -0.054486 0.104794 0.013252 -0.056984 0.105748 0.017272 -0.056984 0.104794 0.017272 -0.054486 0.104794 -0.07086 -0.050522 -0.049077 -0.075272 -0.051478 -0.064667 -0.093964 -0.050974 -0.074658 -0.063695 -0.046709 -0.045903 0.034314 -0.053669 0.120711 0.00423 -0.053669 0.123607 0.033359 -0.053669 0.116691 0.005184 -0.053669 0.127628 0.00423 -0.053669 0.123607 0.033359 -0.053669 0.116691 0.00423 -0.053669 0.123607 0.069919 -0.084286 0.101741 0.05505 -0.053888 0.118072 0.05916 -0.035101 0.113558 0.069877 -0.02482 0.101741 0.093978 -0.0351 0.075318 0.083473 -0.083184 0.087135 0.083177 -0.02482 0.087135 0.031948 -0.050974 -0.104554 0.017837 -0.046709 -0.065261 0.019744 -0.051478 -0.087227 0.019744 -0.051478 -0.087227 0.02281 -0.050521 -0.071317 0.017837 -0.046709 -0.065261 0.066219 -0.04993 0.118761 0.058087 -0.049919 0.12429 -0.092469 0.084739 -0.2612 -0.074485 0.090583 -0.2612 -0.04501 0.084739 -0.2612 0.019422 0.084739 -0.2612 -0.024192 -0.04993 0.140227 -0.016289 -0.049912 0.146906 -0.016032 -0.049912 0.14105 -0.030164 -0.04993 0.14393 -0.016289 -0.058632 0.146906 -0.030164 -0.05865 0.14393 0.066999 0.084146 0.251876 0.049446 0.08985 0.251876 0.019454 0.084146 0.251876 -0.012519 0.08985 0.251876 -0.008319 -0.018393 0.247985 -0.053356 -0.052828 0.142415 -0.038431 -0.052828 0.106279 -0.053356 -0.052828 0.142415 -0.020225 -0.035101 0.132406 -0.014525 -0.053888 0.134591 -0.020225 -0.072675 0.132406 -0.035148 -0.084286 0.126687 -0.053594 -0.084286 0.119618 -0.053594 -0.023489 0.119618 -0.035148 -0.023489 0.126687 0.090551 -0.052828 0.110731 0.060976 -0.052828 0.085161 0.060976 -0.052828 0.085161 0.090551 -0.052828 0.110731 0.05916 -0.072675 0.113558 0.093978 -0.072675 0.075318 0.098088 -0.053888 0.070804</float_array>
          <technique_common>
            <accessor source="#GeometrySource-array" count="886" stride="3">
              <param name="X" type="float"/>
              <param name="Y" type="float"/>
              <param name="Z" type="float"/>
            </accessor>
          </technique_common>
        </source>
        <source id="GeometrySource1" name="BombNrm">
          <float_array id="GeometrySource1-array" count="2658">-0.684178 -0.475091 0.553343 -0.431121 -0.652022 -0.6237 -0.429926 -0.644783 0.631996 -0.144751 0.746826 -0.649075 0.084201 -0.645013 -0.759519 -0.140541 -0.757793 -0.63718 -0.431271 0.639781 0.636149 0.169351 -0.658359 0.733406 0.669136 -0.632086 0.3908 0.671141 0.625027 0.398637 0.165873 0.676187 0.717815 0.473358 -0.615609 0.630045 0.513425 -0.587922 -0.625094 0.001312 -0.245802 -0.969319 -0.953973 -0.295091 -0.053439 -0.910333 -0.103522 0.40072 -0.61445 -0.332694 -0.715378 -0.662878 -0.168192 -0.729592 0.734136 0.010071 -0.678927 0.377918 0.089604 0.921493 0.70207 -0.37777 0.603645 0.556674 -0.301013 -0.774277 0.595866 -0.343315 0.726002 0.55691 -0.508751 0.656524 0.236612 -0.728238 -0.643182 0.55048 -0.505342 -0.664531 0.23625 -0.729959 0.641362 -0.060153 0.998188 0.001403 -0.587766 0.809029 0.001403 -0.587766 0.809029 0.001403 0.008881 0.99996 0.001251 -0.046235 0.753874 0.65539 0.005859 0.660563 0.750748 -0.449545 0.618743 0.644256 -0.725697 0.238542 0.645339 -0.949176 0.314714 0.004394 -0.986583 0.156012 -0.048097 -0.76774 -0.518582 0.376362 -0.724659 -0.238725 0.646437 -0.998761 0.020997 0.045107 0.039735 0.641109 -0.76642 0.972018 -0.201155 0.121315 0.930469 -0.293686 0.219036 -0.022767 0.725443 -0.687905 -0.840958 -0.327685 0.430596 -0.825091 -0.523773 0.211866 -0.066928 0.906869 -0.416064 -0.066929 0.99655 -0.049075 0.987841 -0.154091 0.020661 -0.094152 0.994232 0.051364 -0.797591 -0.602909 0.018678 0.992269 -0.123328 0.013855 -0.081181 0.996699 -0.000000 0.966798 -0.25554 -0.000763 0.969598 -0.244704 0 -0.747489 -0.662766 -0.044741 0.305742 0.940543 -0.147988 -0.990115 0.124089 -0.06537 0.348802 0.937056 -0.016236 -0.904496 0.091893 -0.416464 -0.748885 -0.096624 -0.655618 0.382167 0.899779 -0.210586 -0.527251 -0.350483 -0.77406 0.304641 0.858745 -0.412008 0.38012 0.90707 -0.18092 0.043062 -0.957116 0.286485 0.470548 0.882347 -0.006928 -0.993859 0.09992 0.047549 0.149084 -0.987493 0.051302 0.262099 -0.96462 -0.028504 0.006622 -0.855746 0.517354 -0.125188 -0.740052 0.660795 -0.137243 -0.358597 -0.923348 0.262955 0.963679 -0.046664 0.100163 -0.344591 -0.933394 0 -0.369132 -0.929377 0.299698 -0.83006 0.4703 0 -0.793601 0.608439 -0.312854 -0.816575 0.485105 -0.301039 -0.785313 0.540979 0 0.976255 0.216626 -0.03763 -0.342577 -0.938736 0.255049 -0.743874 0.617739 0.252214 -0.408292 -0.877317 0.564035 -0.338128 -0.753349 -0.382167 0.899779 -0.210585 0.748898 -0.096622 -0.655603 -0.289812 0.87856 -0.379661 -0.416189 0.869368 -0.266432 -0.304794 0.948348 -0.087956 -0.348802 0.937056 -0.016236 0.993859 0.09992 0.047548 0.990115 0.124089 -0.065371 -0.305741 0.940539 -0.148018 -0.149084 -0.987493 0.051302 -0.006622 -0.855746 0.517354 0.095464 -0.720894 0.686439 0.904496 0.091893 -0.416464 -0.043062 -0.957116 0.286485 -0.470572 0.882334 -0.006927 0.296646 -0.953661 0.050326 0.324355 -0.943521 -0.067538 0.848914 0.527825 -0.027314 0.764816 0.644203 -0.00763 -0.996978 -0.05881 0.050753 -0.997867 0.057893 -0.030152 0.860252 0.479979 -0.172008 0.268329 -0.859984 -0.434081 0.777138 0.550259 -0.305405 0.679547 0.692945 -0.240921 -0.745063 -0.18757 0.640077 -0.003692 -0.722943 -0.690898 -0.934543 -0.185407 0.303732 -0.259477 -0.749438 -0.609109 -0.664534 0.210188 -0.717088 -0.459672 -0.887087 -0.042176 -0.677769 -0.669529 0.30391 -0.665571 0.238144 -0.707321 0.114538 -0.619355 0.776712 0.328631 -0.831497 0.447901 0.684851 0.516598 0.513912 -0.056918 -0.997762 -0.035096 -0.982301 0.009827 -0.187054 0.900919 0.356553 0.247417 -0.913809 -0.22096 0.340779 -0.22758 0.948195 -0.22166 0.607794 0.667704 -0.429836 -0.005981 0.999927 -0.010529 0.492762 0.653964 -0.574035 -0.736063 0.653967 0.174753 -0.64603 0.653966 0.393667 -0.477143 0.649915 0.591561 -0.325519 0.409325 0.852344 0.443165 0.478536 -0.758029 -0.661515 -0.635084 -0.398831 -0.673752 0.498844 -0.545173 0.448758 -0.653117 -0.609962 -0.754919 -0.63324 0.170602 -0.656467 0.734138 0.173471 -0.493313 -0.783185 0.3785 0.551601 -0.828683 -0.094975 -0.182291 0.149422 0.971824 -0.500144 0.711182 0.49404 -0.822357 -0.56542 0.063479 0.67927 -0.69749 -0.228254 0.568792 -0.657909 -0.493591 0.848517 0.109319 0.517753 0.755946 0.653312 0.041596 0.644163 0.743899 -0.177956 0.092046 0.994531 -0.049349 -0.985735 -0.16758 -0.015595 0.071048 0.994893 0.071689 0.066897 0.906871 0.416065 -0.992269 -0.123328 -0.013855 0.022767 0.725444 0.687905 -0.972018 -0.201155 -0.121315 -0.039735 0.64111 0.76642 -0.930469 -0.293686 -0.219036 0.840958 -0.327685 -0.430596 -0.96256 -0.271067 -0.001342 0.791285 -0.610058 -0.041201 0.825091 -0.523773 -0.211865 0.73502 -0.676454 0.046419 -0.781473 -0.411764 0.468774 0.393117 0.026215 -0.919115 -0.817037 0.051791 0.574255 -0.695415 0.490691 0.524995 0.383777 -0.181222 -0.905469 0.702764 -0.125525 -0.700262 0.381797 -0.448848 0.807939 0.173927 -0.668241 0.723328 0.5965 -0.126472 0.792586 0.369281 -0.91539 -0.160286 0.081699 -0.782297 0.617524 -0.345479 0.680186 0.646523 0.498388 0.208328 0.841552 0.431123 0.251971 -0.866397 -0.398492 -0.715589 0.573704 0.527612 0.223948 -0.819435 0.320906 0.507803 0.799472 -0.470572 0.882334 0.006927 -0.348802 0.937056 0.016235 0.993859 0.099919 -0.047549 -0.149084 -0.987493 -0.051301 0.990115 0.124089 0.06537 -0.305741 0.940539 0.148018 -0.043062 -0.957117 -0.286485 -0.382167 0.899779 0.210585 -0.006622 -0.855746 -0.517354 -0.304641 0.858746 0.412007 -0.100163 -0.34459 0.933394 0 0.976254 -0.216627 0 -0.369132 0.929377 0.137243 -0.358597 0.923349 0.301039 -0.785314 -0.540979 0.125188 -0.740053 -0.660795 0.527251 -0.350483 0.77406 0.748899 -0.096622 0.655603 0.904496 0.091893 0.416464 -0.38012 0.90707 0.180919 -0.262955 0.963679 0.046663 0.312854 -0.816576 -0.485105 0 -0.793601 -0.608438 -0.904496 0.091893 0.416464 0.006622 -0.855746 -0.517354 -0.748885 -0.096624 0.655618 -0.149484 -0.758588 -0.634191 -0.499143 -0.361013 0.787734 -0.00946 -0.340473 0.940207 0.332167 0.93522 0.122594 -0.295516 -0.838878 -0.457115 0.310598 0.845638 0.43408 0.382167 0.899779 0.210585 0.305742 0.940543 0.147988 -0.990115 0.124089 0.065371 0.348802 0.937056 0.016235 0.043062 -0.957117 -0.286485 -0.993859 0.099919 -0.047548 0.470548 0.882347 0.006927 0.149084 -0.987493 -0.051301 0.262099 -0.96462 0.028505 0.943455 0.323803 -0.071017 0.925569 0.373182 0.063692 0.881681 -0.023011 -0.471284 0.810248 0.166786 0.561854 0.822357 -0.56542 -0.063478 0.493313 -0.783186 -0.3785 0.182291 0.149422 -0.971825 0.500144 0.711182 -0.49404 -0.644163 0.743899 0.177956 0.656467 0.734138 -0.173471 0.673752 0.498844 0.545172 0.754919 -0.63324 -0.170601 -0.67927 -0.69749 0.228255 -0.568792 -0.657908 0.493592 -0.755946 0.653312 -0.041596 -0.848517 0.109319 -0.517753 -0.884995 -0.236981 0.400778 -0.934543 -0.185407 -0.303732 -0.003692 -0.722943 0.690898 -0.745063 -0.187571 -0.640077 0.268329 -0.859984 0.434082 0.324355 -0.943521 0.067538 -0.996978 -0.05881 -0.050753 0.777138 0.550259 0.305404 -0.259477 -0.749438 0.609109 -0.576849 -0.103065 -0.810323 0.679547 0.692945 0.240921 0.860252 0.479979 0.172007 0.296646 -0.953661 -0.050325 -0.997867 0.057893 0.030152 0.031343 0.641403 0.766564 -0.04587 0.810839 0.583469 0.574681 -0.808887 -0.124275 0.573662 -0.787935 -0.223764 0.17463 0.883281 0.435109 0.329546 -0.920641 -0.209331 0.338118 -0.941047 -0.010345 0.304245 0.950609 0.061465 0.36947 -0.92746 0.057529 -0.994573 -0.093143 -0.046357 0.330365 0.942478 -0.050936 -0.998477 0.041169 0.036714 -0.925969 -0.099887 -0.364149 -0.68079 0.042604 -0.731238 -0.586063 0.257217 -0.768355 -0.296618 -0.953669 -0.050326 -0.324355 -0.943521 0.067538 -0.848914 0.527825 0.027314 -0.764816 0.644203 0.007629 -0.860252 0.479979 0.172008 -0.268329 -0.859984 0.434082 -0.777138 0.550259 0.305404 -0.679547 0.692945 0.240921 0.745063 -0.187571 -0.640077 0.934543 -0.185407 -0.303732 0.003692 -0.722943 0.690898 0.996978 -0.05881 -0.050753 0.259477 -0.749438 0.609109 -0.912558 0.408379 0.021546 0.038576 -0.857285 -0.513394 0.109959 -0.960519 -0.255564 -0.842541 0.426505 0.328965 0.931749 0.338213 0.132117 0.968061 0.23347 0.091373 0.886878 0.41646 0.20002 -0.881192 0.38653 -0.272204 -0.863574 0.364431 -0.348469 0.118841 -0.979871 0.160408 0.053591 -0.94069 0.335008 -0.878596 0.440183 -0.185223 0.019318 -0.946248 0.322863 0.11753 -0.977287 0.17634 -0.88076 0.469999 0.057986 0.035005 -0.975613 0.216688 -0.838642 0.539827 0.072575 0.047823 -0.822127 0.567292 -0.881702 0.422295 -0.2104 -0.839453 0.112889 -0.531578 0.035158 -0.416741 0.908345 -0.778604 -0.326952 -0.53561 0.977996 0.195447 -0.072972 0.942727 0.331984 -0.032441 0.937406 0.340262 -0.074101 -0.704691 -0.520385 -0.482297 -0.142585 0.074375 0.986984 -0.342762 0.269241 0.900013 0.87286 0.471863 -0.124337 0.000763 0.003876 0.999992 0.617928 -0.377557 0.689649 0.730353 -0.184152 0.657778 -0.003814 0.660652 0.750683 -0.001647 0.001861 0.999997 0.701108 -0.253428 -0.6665 -0.236612 -0.728238 -0.643182 -0.580046 -0.486658 -0.653231 -0.0018 0.001281 -0.999998 0.004608 0.660681 -0.750652 0.000976 0.004821 -0.999988 -0.044801 0.755154 -0.654015 -0.450064 0.619475 -0.643189 -0.601565 -0.320666 -0.731637 0.000427 -0.767315 -0.64127 -0.450801 -0.622717 -0.639533 -0.653611 -0.369106 -0.660722 -0.65647 -0.741191 0.140297 0.969633 -0.198346 0.143075 0.846783 -0.499873 0.181894 -0.435506 -0.896129 -0.085361 -0.822224 0.530977 -0.204968 0.955614 -0.294387 0.011719 -0.377947 -0.866647 0.325699 -0.751105 0.654787 -0.084232 -0.545832 0.819831 -0.173043 -0.645911 0.75987 0.073459 -0.452537 -0.873029 -0.181741 -0.694471 0.683881 0.223647 -0.420705 -0.890789 -0.171761 -0.637117 0.664187 0.391072 -0.393541 -0.904581 -0.163886 -0.751658 0.469356 0.463374 -0.115239 -0.975168 -0.189125 0.964512 -0.263803 0.011169 0.979404 -0.164526 -0.117039 0.976864 -0.017487 -0.213147 0.832203 0.470304 -0.293688 -0.206768 -0.978386 0.002777 0.790544 0.548312 -0.272752 0.830492 0.545716 -0.111701 -0.774095 0.466184 0.42831 0.778604 -0.326951 0.535611 -0.035158 -0.416741 -0.908345 0.142585 0.074374 -0.986984 0.839453 0.11289 0.531578 -0.047823 -0.822127 -0.567291 0.881702 0.422295 0.2104 -0.043733 -0.978896 -0.199624 -0.931252 0.22941 0.283093 0.342762 0.269241 -0.900013 0.704691 -0.520385 0.482297 -0.937406 0.340262 0.074101 -0.942727 0.331984 0.032441 -0.977996 0.195447 0.072972 -0.971368 0.170359 0.165598 -0.863104 0.000000 0.505026 -0.357833 0.000000 0.933785 -0.751604 0.367486 0.547764 -0.459684 0.594641 0.659616 -0.098851 0.594637 0.797894 -0.751604 -0.367485 0.547764 -0.012696 0.756574 -0.653785 0.446378 0.756579 -0.477844 0.193034 0.367482 0.909777 0.304521 0.000000 0.952506 0.193034 -0.367482 0.909778 -0.098851 -0.594636 0.797895 0.446378 -0.756579 -0.477844 -0.459684 -0.59464 0.659617 -0.012696 -0.756574 -0.653785 -0.004974 -0.999946 -0.009155 -0.488458 -0.662233 0.568204 -0.635051 -0.668561 0.386958 0.134896 -0.651283 0.746748 0.097753 -0.981378 0.165354 0.221139 -0.342176 0.913243 0.112829 0.649446 0.75199 -0.723549 -0.668554 0.171793 -0.744233 -0.664975 -0.062654 -0.623056 -0.772784 -0.120857 -0.991275 0.004089 0.131749 -0.410788 -0.737618 -0.535886 -0.388935 -0.66968 -0.63266 -0.754925 0.652746 -0.063327 0.256665 0.652314 -0.713169 0.061709 -0.663516 -0.745612 -0.07581 0.649637 -0.756455 -0.173472 -0.665994 -0.725506 0.628428 -0.672925 -0.390192 0.872758 0.070346 -0.483058 0.721808 -0.671787 -0.166421 0.286306 -0.668567 -0.686329 0.484375 -0.668561 -0.564275 0.879513 0.444731 0.169322 0.736158 0.635657 0.232405 0.90531 -0.384079 0.181373 0.72212 -0.654305 0.224562 0.740299 -0.669465 0.061434 0.950634 0.286237 0.119848 -0.06592 0.933663 0.352035 0.753283 0.653087 0.077732 0.687993 -0.707098 -0.163338 0.428364 -0.577357 -0.695099 0.687993 0.707097 -0.163339 -0.695099 0.577357 -0.428364 -0.687993 -0.707097 0.163339 -0.687993 0.707098 0.163338 -0.749822 -0.589933 0.299575 -0.749822 0.589933 0.299575 -0.272385 0.581392 -0.766675 -0.272385 -0.581392 -0.766674 -0.452293 -0.803568 0.386922 0.606292 -0.616242 -0.502649 0.606292 0.616241 -0.50265 0.332079 0.734383 -0.59195 0.332079 -0.734383 -0.59195 -0.030428 -0.672714 -0.739277 -0.533082 -0.787279 0.309864 -0.656245 -0.599419 0.458301 -0.656245 0.599419 0.4583 -0.452293 0.803569 0.386921 -0.030428 0.672714 -0.739277 -0.533082 0.787279 0.309863 -0.695099 -0.577357 -0.428364 0.695099 -0.577357 0.428364 -0.428364 -0.577357 0.695099 -0.428364 0.577357 0.695099 0.428364 0.577357 -0.695099 0.695099 0.577357 0.428364 0.428364 -0.577357 -0.695099 0.156104 0.000000 0.987741 0.236522 -0.367478 0.899454 0.762309 0.019593 0.646916 0.234109 0.376968 0.896152 0.482508 0.632662 0.605744 0.446979 -0.594629 0.668301 -0.881336 -0.467586 0.067905 0.73686 -0.58469 0.339375 0.921534 -0.364249 0.13453 0.997032 -0.00177 0.076969 0.707014 0.626748 0.327596 0.900899 0.400077 0.168283 -0.002655 -0.501279 -0.865282 0.104343 -0.000183 -0.994541 -0.562743 -0.734383 -0.379475 0.615481 -0.787274 0.037172 -0.305135 -0.672713 -0.674055 -0.562743 0.734383 -0.379476 -0.76753 -0.616246 -0.176462 -0.101293 -0.581391 -0.807294 -0.101293 0.581391 -0.807294 0.577944 -0.803572 0.142311 0.804458 -0.589938 -0.069431 0.804458 0.589938 -0.069431 0.577944 0.803573 0.142311 0.792215 0.599426 0.114385 0.792215 -0.599426 0.114386 0.615481 0.787274 0.037172 -0.30559 -0.848895 -0.431268 0.831094 -0.533594 0.156715 0.191479 -0.575171 -0.795308 0.559482 -0.439083 0.702984 0.563782 0.438562 0.699867 0.830993 0.534249 0.15501 -0.302807 0.842011 -0.446458 0.202647 0.566343 -0.798868 0 -1 0.000000 0 -1 0.000000 0 -1 0.000000 0 -1 0.000000 0 -1 0.000000 0 -1 0.000000 -0.757792 -0.502834 -0.415824 -0.727636 -0.23695 -0.643739 -0.580354 -0.399405 -0.709694 -0.984621 -0.167186 -0.050692 -0.727687 0.237069 -0.643638 -0.946144 0.323743 0.001403 0.000518 0.746718 -0.66514 0.008911 0.999959 0.001281 0.001556 0.999998 0.001312 0.047 0.757346 -0.651321 0.061861 0.998084 0.001373 0.451228 0.620489 -0.641395 0.558294 0.829643 -0.000244 0.052523 0.844646 -0.532742 -0.573823 -0.511594 -0.63953 0.054598 -0.846145 -0.530149 -0.57187 0.5137 -0.639592 0.971368 0.170359 -0.165598 0.931056 0.240707 -0.274217 0.802023 0.531833 -0.271868 0.869749 0.489915 0.059327 -0.653571 -0.707102 -0.269912 -0.653571 0.707101 -0.269913 -0.653571 -0.707102 -0.269912 0.653553 -0.707116 0.269918 0.653571 -0.707101 0.269913 0.653553 0.707116 0.269918 0.653571 0.707102 0.269912 -0.384116 -0.467587 -0.796127 -0.525966 -0.000000 -0.850506 0.357833 -0.000000 -0.933785 -0.384116 0.467586 -0.796127 0.462461 0.707105 -0.534914 0.462461 -0.707105 -0.534914 0.462461 0.707105 -0.534914 0.462461 -0.707105 -0.534914 -0.462461 -0.707105 0.534914 -0.462461 -0.707105 0.534914 0 -1 0.000000 0 -1 0.000000 0 -1 0.000000 0 -1 0.000000 0 -1 0.000000 0 -1 0.000000 -0.589786 0.755048 -0.286454 -0.739783 -0.005341 -0.672824 -0.870766 0.487296 0.065646 -0.983622 0 0.180244 -0.607215 -0.760697 -0.229414 -0.25905 -0.722582 -0.640912 -0.000274 0.498011 -0.867171 -0.308215 0.765516 -0.564791 -0.43091 0.654194 -0.621568 -0.573823 -0.511594 -0.63953 -0.57187 0.5137 -0.639592 0.087621 0.653975 -0.751425 0.202647 0.566343 -0.798868 0.191479 -0.575171 -0.795308 0.831094 -0.533594 0.156715 -0.684247 0.478729 0.550114 -0.144751 0.746826 -0.649075 -0.43091 0.654194 -0.621568 -0.57187 0.5137 -0.639592 0.087621 0.653975 -0.751425 0.830993 0.534249 0.15501 0.202647 0.566343 -0.798868 -0.601565 -0.320666 -0.731637 -0.797674 -0.462331 0.387255 -0.561225 -0.437041 0.702867 -0.942732 -0.012207 -0.333328 -0.584371 -0.316722 0.747127 -0.653611 -0.369106 -0.660722 -0.659883 -0.334153 0.672976 -0.449545 -0.618743 0.644257 -0.450801 -0.622717 -0.639533 0.000427 -0.767315 -0.64127 0 -0.764808 0.644258 -0.001678 -0.304245 0.952592 0.734136 0.010071 -0.678927 -0.757792 -0.502834 -0.415824 -0.797674 -0.462331 0.387255 -0.757792 -0.502834 -0.415824 -0.984621 -0.167186 -0.050692 -0.989528 -0.133766 0.054233 -0.455441 -0.005066 -0.890251 -0.991275 0.004089 0.131749 -0.623056 -0.772784 -0.120857 -0.410788 -0.737618 -0.535886 -0.455441 -0.005066 -0.890251 -0.549619 -0.51797 0.655459 -0.236612 -0.728238 -0.643182 -0.237105 -0.72874 0.642432 -0.580046 -0.486658 -0.653231 0.001312 -0.245802 -0.969319 -0.001678 -0.304245 0.952592 0.617928 -0.377557 0.689649 0.530333 -0.496701 -0.687049 0.701108 -0.253428 -0.6665 0.793496 -0.159249 -0.58737 0.729356 0.23677 -0.641857 0.943455 0.323803 -0.071017 0.729294 -0.237045 -0.641825 0.598137 -0.487965 -0.635706 0.577945 -0.227033 0.783859 0.730353 -0.184152 0.657778 0.725935 0.235915 0.646035 0.813032 0.0741 0.577484 0.925569 0.373182 0.063692 -0.005707 0.999983 0.001251 0.001556 0.999998 0.001312 -0.005707 0.999983 0.001251 0.061984 0.998076 0.001342 0.56179 0.827274 0.003173 -0.989528 -0.133766 0.054233 -0.060092 0.998192 0.001373 0.813032 0.0741 0.577484 0.598137 -0.487965 -0.635706 0.577945 -0.227033 0.783859 0.793496 -0.159249 -0.58737 -0.747489 -0.662766 -0.044741 -0.747135 -0.664673 0.000000 -0.797591 -0.602909 0.018678 -0.825091 -0.523773 0.211866 -0.840958 -0.327685 0.430596 -0.884995 -0.236981 0.400778 -0.747135 -0.664673 0.000000 0.006622 -0.855746 0.517354 -0.125188 -0.740052 0.660795 0.149084 -0.987493 0.051302 0.262099 -0.96462 -0.028504 0.043062 -0.957116 0.286485 0.095464 -0.720894 0.686439 0.255049 -0.743874 0.617739 0.299698 -0.83006 0.4703 0 -0.793601 0.608439 -0.312854 -0.816575 0.485105 -0.301039 -0.785313 0.540979 -0.043062 -0.957116 0.286485 -0.149084 -0.987493 0.051302 -0.262071 -0.964629 -0.028474 -0.006622 -0.855746 0.517354 -0.262071 -0.964629 -0.028474 -0.934543 -0.185407 0.303732 -0.576849 -0.103064 0.810323 -0.996978 -0.05881 0.050753 -0.997867 0.057893 -0.030152 -0.745063 -0.18757 0.640077 -0.576849 -0.103064 0.810323 -0.76774 -0.518582 0.376362 0.900919 0.356553 0.247417 -0.942732 -0.012207 -0.333328 0.221139 -0.342176 0.913243 0.097753 -0.981378 0.165354 -0.706396 -0.502375 0.498622 0.684851 0.516598 0.513912 0.221139 -0.342176 0.913243 -0.986583 0.156012 -0.048097 -0.998761 0.020997 0.045107 -0.76774 -0.518582 0.376362 -0.080326 0.405877 0.910391 0.112829 0.649446 0.75199 0.256665 0.652314 -0.713169 -0.07581 0.649637 -0.756455 -0.369468 0.653969 -0.660165 -0.571688 0.655555 -0.493376 -0.700356 0.653203 -0.287797 -0.754925 0.652746 -0.063327 0.753283 0.653087 0.077732 -0.06592 0.933663 0.352035 0.065249 0.72403 0.686675 0.276079 -0.140755 0.950772 0.223672 0.973487 -0.047884 0.736158 0.635657 0.232405 0.90531 -0.384079 0.181373 0.644163 0.743899 -0.177956 -0.661515 -0.635084 -0.398831 0.755946 0.653312 0.041596 0.848517 0.109319 0.517753 -0.493313 -0.783185 0.3785 0.551601 -0.828683 -0.094975 0.443165 0.478536 -0.758029 0.448758 -0.653117 -0.609962 0.840958 -0.327685 -0.430596 0.884995 -0.236982 -0.400778 0.825091 -0.523773 -0.211865 0.791285 -0.610058 -0.041201 0.73502 -0.676454 0.046419 0.884995 -0.236982 -0.400778 -0.345479 0.680186 0.646523 0.879513 0.444731 0.169322 0.328659 0.155861 0.931499 0.328659 0.155861 0.931499 -0.695415 0.490691 0.524995 -0.817037 0.051791 0.574255 0.90531 -0.384079 0.181373 0.223672 0.973487 -0.047884 -0.398492 -0.715589 0.573704 -0.781473 -0.411764 0.468774 0.276079 -0.140755 0.950772 -0.131568 -0.789564 0.599399 0.095493 0.581874 0.807653 -0.131568 -0.789564 0.599399 0.276079 -0.140755 0.950772 0.065249 0.72403 0.686675 -0.262071 -0.964629 0.028474 -0.149084 -0.987493 -0.051301 -0.262071 -0.964629 0.028474 0.125188 -0.740053 -0.660795 0.312854 -0.816576 -0.485105 -0.043062 -0.957117 -0.286485 -0.006622 -0.855746 -0.517354 0.301039 -0.785314 -0.540979 -0.295516 -0.838878 -0.457115 -0.149484 -0.758588 -0.634191 0.043062 -0.957117 -0.286485 0 -0.793601 -0.608438 0.006622 -0.855746 -0.517354 0.149084 -0.987493 -0.051301 0.262099 -0.96462 0.028505 -0.22758 0.948195 -0.22166 0.598137 -0.487965 -0.635706 0.872758 0.070346 -0.483058 -0.22758 0.948195 -0.22166 -0.06592 0.933663 0.352035 0.950634 0.286237 0.119848 0.793496 -0.159249 -0.58737 0.493313 -0.783186 -0.3785 -0.551601 -0.828683 0.094975 -0.848517 0.109319 -0.517753 -0.551601 -0.828683 0.094975 -0.755946 0.653312 -0.041596 -0.443165 0.478537 0.758029 0.661515 -0.635084 0.398831 -0.448758 -0.653117 0.609963 0.661515 -0.635084 0.398831 -0.448758 -0.653117 0.609963 -0.443165 0.478537 0.758029 -0.644163 0.743899 0.177956 0.764816 0.644203 0.007629 0.848914 0.527825 0.027314 0.860252 0.479979 0.172007 0.679547 0.692945 0.240921 0.777138 0.550259 0.305404 0.848914 0.527825 0.027314 0.764816 0.644203 0.007629 -0.586063 0.257217 -0.768355 -0.68079 0.042604 -0.731238 -0.925969 -0.099887 -0.364149 -0.998477 0.041169 0.036714 -0.994573 -0.093143 -0.046357 0.996978 -0.05881 -0.050753 0.997867 0.057893 0.030152 0.576849 -0.103065 -0.810323 0.934543 -0.185407 -0.303732 0.997867 0.057893 0.030152 0.745063 -0.187571 -0.640077 0.576849 -0.103065 -0.810323 0.968061 0.23347 0.091373 0.931749 0.338213 0.132117 0.937406 0.340262 -0.074101 0.942727 0.331984 -0.032441 0.977996 0.195447 -0.072972 0.971368 0.170359 -0.165598 0.931056 0.240707 -0.274217 0.802023 0.531833 -0.271868 0.869749 0.489915 0.059327 0.886878 0.41646 0.20002 -0.001678 -0.304245 0.952592 0.595866 -0.343315 0.726002 -0.549619 -0.51797 0.655459 -0.237105 -0.72874 0.642432 0.23625 -0.729959 0.641362 0.55691 -0.508751 0.656524 0.70207 -0.37777 0.603645 0.725935 0.235915 0.646035 0.448242 0.618816 0.645093 0.04761 0.75346 0.655768 0.001159 0.741984 0.670416 0.005859 0.660563 0.750748 -0.046235 0.753874 0.65539 -0.449545 0.618743 0.644256 -0.725697 0.238542 0.645339 -0.724659 -0.238725 0.646437 -0.561225 -0.437041 0.702867 -0.584371 -0.316722 0.747127 -0.659883 -0.334153 0.672976 0.473358 -0.615609 0.630045 0 -0.764808 0.644258 -0.449545 -0.618743 0.644257 0.55048 -0.505342 -0.664531 0.236612 -0.728238 -0.643182 0.001312 -0.245802 -0.969319 0.556674 -0.301013 -0.774277 0.530333 -0.496701 -0.687049 0.729294 -0.237045 -0.641825 0.729356 0.23677 -0.641857 0.451228 0.620489 -0.641395 0.047 0.757346 -0.651321 -0.003937 0.66715 -0.744913 0.000518 0.746718 -0.66514 -0.727687 0.237069 -0.643638 -0.727636 -0.23695 -0.643739 -0.580354 -0.399405 -0.709694 0.513425 -0.587922 -0.625094 -0.694471 0.683881 0.223647 -0.645911 0.75987 0.073459 -0.751105 0.654787 -0.084232 -0.545832 0.819831 -0.173043 -0.822224 0.530977 -0.204968 -0.931252 0.22941 0.283093 -0.751658 0.469356 0.463374 -0.637117 0.664187 0.391072 -0.774095 0.466184 0.42831 -0.971368 0.170359 0.165598 -0.977996 0.195447 0.072972 -0.942727 0.331984 0.032441 -0.937406 0.340262 0.074101 -0.525966 -0.000000 -0.850506 -0.384116 0.467586 -0.796127 0.817801 0.46759 -0.335501 0.959667 0 -0.28114 0.817801 -0.46759 -0.335501 -0.384116 -0.467587 -0.796127 -0.056918 -0.997762 -0.035096 -0.706396 -0.502375 0.498622 -0.325519 0.409325 0.852344 -0.477143 0.649915 0.591561 -0.64603 0.653966 0.393667 -0.080326 0.405877 0.910391 -0.455441 -0.005066 -0.890251 -0.369468 0.653969 -0.660165 -0.571688 0.655555 -0.493376 -0.700356 0.653203 -0.287797 -0.736063 0.653967 0.174753 0.607794 0.667704 -0.429836 0.492762 0.653964 -0.574035 0.328659 0.155861 0.931499 0.276079 -0.140755 0.950772 0.369281 -0.91539 -0.160286 -0.22758 0.948195 -0.22166 0.081699 -0.782297 0.617524 -0.687993 -0.707097 0.163339 -0.695099 -0.577357 -0.428364 0.428364 0.577357 -0.695099 -0.695099 -0.577357 -0.428364 0.428364 -0.577357 -0.695099 0.428364 0.577357 -0.695099 0.332079 0.734383 -0.59195 0.606292 0.616241 -0.50265 -0.272385 0.581392 -0.766675 -0.030428 0.672714 -0.739277 0.695099 0.577357 0.428364 -0.695099 0.577357 -0.428364 0.428364 0.577357 -0.695099 -0.428364 0.577357 0.695099 -0.695099 0.577357 -0.428364 0.428364 0.577357 -0.695099 -0.695099 0.577357 -0.428364 -0.607215 -0.760697 -0.229414 -0.983622 0 0.180244 -0.870766 0.487296 0.065646 -0.589786 0.755048 -0.286454 -0.000274 0.498011 -0.867171 -0.25905 -0.722582 -0.640912 -0.308215 0.765516 -0.564791 -0.101293 0.581391 -0.807294 -0.305135 0.672712 -0.674056 -0.76753 0.616246 -0.176463 -0.76753 0.616246 -0.176463 -0.562743 0.734383 -0.379476 -0.305135 0.672712 -0.674056 -0.302807 0.842011 -0.446458 0.202647 0.566343 -0.798868 -0.450064 0.619475 -0.643189 -0.044801 0.755154 -0.654015 0.004608 0.660681 -0.750652 -0.003937 0.66715 -0.744913 0.052523 0.844646 -0.532742 -0.684247 0.478729 0.550114 -0.57187 0.5137 -0.639592 -0.189008 0.438384 0.87869 -0.684178 -0.475091 0.553343 -0.187908 -0.438502 0.878867 0.448242 0.618816 0.645093 0.04761 0.75346 0.655768 -0.003814 0.660652 0.750683 0.001159 0.741984 0.670416 0.87286 0.471863 -0.124337 -0.653571 0.707101 -0.269913 -0.653571 0.707101 -0.269913 -0.653571 0.707101 -0.269913 0.817801 0.46759 -0.335501 0.959667 0 -0.28114 0.817801 -0.46759 -0.335501 0.446378 -0.756579 -0.477844 -0.012696 -0.756574 -0.653785 -0.012696 0.756574 -0.653785 0.446378 0.756579 -0.477844 -0.462461 0.707105 0.534914 -0.462461 0.707105 0.534914 -0.462461 0.707105 0.534914 -0.462461 0.707105 0.534914 -0.881336 -0.467586 0.067905 -0.002655 -0.501279 -0.865282 0.104343 -0.000183 -0.994541</float_array>
          <technique_common>
            <accessor source="#GeometrySource1-array" count="886" stride="3">
              <param name="X" type="float"/>
              <param name="Y" type="float"/>
              <param name="Z" type="float"/>
            </accessor>
          </technique_common>
        </source>
        <source id="GeometrySource2" name="BombUV">
          <float_array id="GeometrySource2-array" count="1772">0.317627 0.508301 0.304199 0.531494 0.304199 0.508057 0.24646 0.553711 0.1875 0.53125 0.24646 0.531006 0.304199 0.48584 0.24646 0.508301 0.1875 0.508301 0.1875 0.48584 0.24646 0.48584 0.958496 0.605469 0.963379 0.005859 0.993652 0.005859 0.089355 0.260254 0.089355 0.316895 0.065552 0.260254 0.065552 0.316895 0.061554 0.316895 0.092285 0.316895 0.487549 0.605469 0.508301 0.005859 0.505859 0.605469 0.463867 0.605469 0.440674 0.005859 0.462647 0.005859 0.442383 0.605469 0.758789 0.283203 0.780762 0.256348 0.780273 0.282715 0.723633 0.283691 0.757324 0.605469 0.722656 0.605469 0.778809 0.605469 0.800293 0.605469 0.802246 0.282227 0.816895 0.54541 0.822266 0.57544 0.822266 0.605469 0.817383 0.577881 0.139038 0.295898 0.145142 0.264648 0.145142 0.295898 0.139038 0.264648 0.133545 0.264648 0.133545 0.247559 0.139038 0.247559 0.139038 0.226562 0.145142 0.226562 0.139038 0.188477 0.133545 0.226562 0.145142 0.247559 0.139038 0.151367 0.145142 0.188477 0.145142 0.151367 0.158325 0.188477 0.218384 0.105957 0.209351 0.084473 0.218384 0.084473 0.209351 0.105957 0.209351 0.125977 0.218384 0.125977 0.209351 0.158691 0.218384 0.158691 0.218384 0.194336 0.234985 0.105957 0.218384 0.003906 0.209351 0.003906 0.20105 0.084473 0.20105 0.003906 0.20105 0.125977 0.20105 0.158691 0.209351 0.194336 0.218384 0.209961 0.209351 0.209961 0.209351 0.228027 0.20105 0.242188 0.20105 0.228027 0.20105 0.209961 0.20105 0.194336 0.218384 0.228027 0.209351 0.242188 0.20105 0.276855 0.209351 0.276855 0.209351 0.293457 0.218384 0.327637 0.209351 0.327637 0.218384 0.293457 0.218384 0.276855 0.218384 0.242188 0.218384 0.375488 0.209351 0.456055 0.209351 0.375488 0.218384 0.347656 0.234985 0.375488 0.234985 0.327637 0.234985 0.293457 0.209351 0.347656 0.20105 0.347656 0.218384 0.456055 0.260742 0.101562 0.260742 0.181152 0.253906 0.181152 0.253906 0.101562 0.23999 0.181152 0.23999 0.101562 0.253906 0.20166 0.260742 0.20166 0.253906 0.246094 0.253906 0.289062 0.23999 0.246094 0.260742 0.246094 0.266846 0.20166 0.260742 0.289062 0.136597 0.548584 0.154297 0.552246 0.136597 0.552246 0.154297 0.548584 0.136597 0.567871 0.154297 0.567871 0.154297 0.572021 0.168945 0.552246 0.02182 0.552246 0.136597 0.572021 0.02182 0.567871 0.486816 0.655518 0.488281 0.659912 0.441162 0.659668 0.48584 0.674316 0.396484 0.674072 0.394043 0.659668 0.396484 0.64502 0.405762 0.629639 0.299072 0.077148 0.284668 0.091309 0.284668 0.077148 0.299072 0.091309 0.267822 0.062988 0.284668 0.062988 0.284668 0.025879 0.298584 0.025879 0.284668 0.03418 0.284668 0.045898 0.267822 0.045898 0.251953 0.062988 0.251953 0.045898 0.238648 0.03418 0.238648 0.045898 0.238648 0.062988 0.244141 0.310059 0.250244 0.385254 0.244141 0.385254 0.244141 0.40625 0.250244 0.40625 0.244141 0.42334 0.250244 0.42334 0.244141 0.45459 0.250244 0.45459 0.263428 0.42334 0.250244 0.310059 0.263428 0.385254 0.263428 0.40625 0.263428 0.310059 0.086792 0.470703 0.065735 0.494141 0.065735 0.470703 0.045532 0.470703 0.04541 0.494141 0.027878 0.494141 0.045532 0.51831 0.027954 0.517334 0.065735 0.51831 0.018112 0.497559 0.013947 0.517578 0.027771 0.521973 0.086792 0.51831 0.086792 0.494141 0.105774 0.470703 0.105774 0.494141 0.105774 0.51831 0.352295 0.006348 0.352295 0.086914 0.343262 0.006348 0.368897 0.086914 0.343262 0.086914 0.352295 0.108398 0.368897 0.108398 0.352295 0.128418 0.368897 0.128418 0.352295 0.161133 0.343262 0.212402 0.352295 0.230469 0.343262 0.230469 0.343262 0.196777 0.334961 0.196777 0.334961 0.161133 0.343262 0.161133 0.343262 0.128418 0.343262 0.108398 0.352295 0.196777 0.352295 0.212402 0.368897 0.212402 0.368897 0.230469 0.343262 0.350098 0.334961 0.330078 0.343262 0.330078 0.334961 0.295898 0.343262 0.295898 0.343262 0.244629 0.352295 0.244629 0.334961 0.244629 0.352295 0.295898 0.352295 0.330078 0.352295 0.350098 0.343262 0.37793 0.352295 0.37793 0.368897 0.350098 0.343262 0.458496 0.352295 0.458496 0.334961 0.37793 0.334961 0.458496 0.008286 0.452637 0.008286 0.427734 0.021973 0.452637 0.021973 0.427734 0.166504 0.062012 0.166504 0.050293 0.18335 0.050293 0.183472 0.062012 0.197754 0.079102 0.183472 0.079102 0.183472 0.093262 0.166504 0.079102 0.150635 0.079102 0.150635 0.062012 0.137329 0.062012 0.137329 0.050293 0.133545 0.295898 0.28125 0.393555 0.290039 0.42041 0.28125 0.419922 0.290039 0.393555 0.289795 0.374512 0.281006 0.374512 0.267334 0.419922 0.289795 0.456055 0.280762 0.456055 0.296875 0.456055 0.296143 0.393555 0.289795 0.303711 0.28125 0.303711 0.124512 0.453613 0.12439 0.41748 0.140137 0.453613 0.140381 0.417969 0.124573 0.391113 0.140381 0.391113 0.140137 0.372559 0.124268 0.372559 0.140137 0.301758 0.146606 0.372559 0.124451 0.301758 0.117859 0.301758 0.117859 0.391113 0.117859 0.41748 0.117859 0.453613 0.291748 0.098633 0.291748 0.182617 0.284668 0.182617 0.284668 0.098633 0.284668 0.204102 0.291748 0.204102 0.284668 0.250977 0.284668 0.296387 0.269775 0.250977 0.269775 0.204102 0.291748 0.250977 0.29834 0.182617 0.291748 0.296387 0.311279 0.063965 0.321045 0.003906 0.321045 0.063965 0.311523 0.003906 0.301514 0.004883 0.301514 0.064453 0.301514 0.088867 0.311523 0.088379 0.311768 0.140137 0.321045 0.088867 0.321045 0.140625 0.311523 0.23584 0.321045 0.23584 0.321045 0.32373 0.311279 0.32373 0.321045 0.380371 0.311523 0.380371 0.321045 0.402832 0.311279 0.402832 0.311279 0.422852 0.321045 0.422852 0.311768 0.443848 0.301514 0.422852 0.301514 0.443848 0.301514 0.458496 0.311768 0.458496 0.321045 0.443848 0.321045 0.458496 0.331055 0.23584 0.891113 0.96048 0.978516 0.901001 0.992676 0.92627 0.894043 0.984207 0.785645 0.960175 0.733887 0.66333 0.802246 0.613281 0.828613 0.632324 0.893555 0.769653 0.895508 0.795898 0.786621 0.769287 0.945801 0.805786 0.977051 0.795654 0.957031 0.681641 0.892578 0.610596 0.92334 0.620606 0.942383 0.646729 0.189087 0.145508 0.179565 0.187012 0.179565 0.145508 0.189087 0.187012 0.16272 0.117676 0.179565 0.117676 0.189087 0.117676 0.197388 0.187012 0.197388 0.145508 0.197388 0.240723 0.189087 0.240723 0.197388 0.286133 0.189087 0.286133 0.197388 0.3125 0.189087 0.3125 0.19751 0.335938 0.188843 0.335938 0.179565 0.240723 0.179565 0.286133 0.179565 0.3125 0.177979 0.335938 0.188721 0.361816 0.174683 0.361816 0.174683 0.38623 0.16272 0.361816 0.175049 0.442871 0.188721 0.424316 0.188721 0.442871 0.174683 0.424316 0.188721 0.40625 0.174561 0.40625 0.188721 0.38623 0.19751 0.38623 0.188721 0.455566 0.175049 0.455566 0.16272 0.455566 0.16272 0.442871 0.16272 0.424316 0.16272 0.40625 0.624512 0.949219 0.589356 0.90332 0.645996 0.920837 0.645996 0.885803 0.624512 0.857422 0.589356 0.960052 0.681152 0.875 0.645996 0.829102 0.589356 0.846558 0.554199 0.857422 0.532715 0.885803 0.532715 0.920837 0.497559 0.931702 0.554199 0.949219 0.532715 0.97757 0.220215 0.786133 0.105225 0.782715 0.110779 0.748047 0.152466 0.878906 0.130005 0.849854 0.127197 0.852173 0.094482 0.955475 0.127441 0.717041 0.153687 0.692627 0.187378 0.677002 0.185913 0.673584 0.220215 0.671631 0.259277 0.677246 0.096375 0.612305 0.415039 0.72583 0.315186 0.719727 0.37085 0.643066 0.291748 0.694336 0.328369 0.82251 0.409912 0.878845 0.310791 0.856323 0.329346 0.750854 0.334717 0.785889 0.217896 0.900513 0.278809 0.984856 0.215576 0.992924 0.252197 0.895752 0.284668 0.881409 0.364746 0.940735 0.368408 0.94693 0.3396 0.959198 0.077515 0.25 0.077515 0.187012 0.095093 0.25 0.110657 0.187012 0.126709 0.25 0.110535 0.25 0.030579 0.078613 0.017441 0.069824 0.054932 0.069824 0.042297 0.078613 0.030365 0.101562 0.042419 0.101562 0.054657 0.101562 0.054657 0.126953 0.042603 0.126953 0.04248 0.151855 0.030365 0.151855 0.030365 0.126465 0.017151 0.126465 0.017151 0.101562 0.054657 0.151855 0.017151 0.151855 0.07782 0.166504 0.093567 0.050293 0.094238 0.166016 0.111023 0.166016 0.077087 0.03418 0.093018 0.03418 0.077087 0.050781 0.617188 0.662354 0.63916 0.690674 0.58252 0.708252 0.58252 0.651367 0.547363 0.662354 0.63916 0.72583 0.674316 0.679932 0.617188 0.75415 0.58252 0.765015 0.547363 0.75415 0.525391 0.690674 0.525391 0.72583 0.58252 0.800049 0.525391 0.782471 0.018494 0.254395 0.025833 0.279785 0.018494 0.279785 0.004047 0.254395 0.018494 0.229492 0.018494 0.197754 0.004047 0.197754 0.025833 0.229492 0.025833 0.203125 0.043854 0.203125 0.043854 0.229492 0.043854 0.254395 0.025833 0.254395 0.043854 0.279785 0.151855 0.011719 0.168213 0.035156 0.151977 0.035156 0.168213 0.011719 0.183838 0.011719 0.183838 0.035156 0.197754 0.011719 0.197754 0.035156 0.0896 0.996323 0.000962 0.996323 0.000962 0.976105 0.0896 0.976105 0.136963 0.984085 0.136963 0.988342 0.833496 0.254883 0.825684 0.005859 0.847656 0.005859 0.822266 0.256836 0.803711 0.005859 0.802246 0.256836 0.686523 0.005859 0.724121 0.252441 0.685547 0.253906 0.613281 0.005859 0.612305 0.263672 0.591309 0.005859 0.590332 0.269043 0.136352 0.097656 0.155151 0.110352 0.136352 0.110352 0.154907 0.097656 0.301514 0.402832 0.301514 0.380371 0.301514 0.32373 0.301514 0.139648 0.026215 0.397461 0.018662 0.289551 0.025543 0.289551 0.037262 0.397461 0.036591 0.289551 0.04422 0.397461 0.0448 0.289551 0.444824 0.964478 0.416748 0.95581 0.444824 0.919128 0.399414 0.933167 0.017715 0.579102 0.023514 0.661133 0.01828 0.661133 0.022964 0.579102 0.031616 0.578857 0.032166 0.660889 0.304443 0.981415 0.367676 0.993179 0.304443 0.985512 0.367676 0.973755 0.519043 0.993183 0.519043 0.973755 0.506348 0.770874 0.478272 0.808106 0.478272 0.762085 0.449707 0.770874 0.432129 0.822266 0.449707 0.845337 0.523926 0.822266 0.523926 0.793823 0.304199 0.553711 0.317627 0.53125 0.317627 0.553711 0.1875 0.553711 0.175049 0.553711 0.175049 0.53125 0.175049 0.508301 0.317627 0.486328 0.24646 0.466309 0.304199 0.466309 0.317627 0.466309 0.1875 0.466309 0.175049 0.486328 0.175049 0.466309 0.871582 0.005859 0.833008 0.287109 0.84375 0.605469 0.822266 0.543213 0.867676 0.605469 0.896973 0.005859 0.894043 0.605469 0.915527 0.605469 0.918945 0.005859 0.940918 0.005859 0.937012 0.605469 0.993652 0.605469 0.112671 0.316895 0.112671 0.400879 0.092285 0.400879 0.061554 0.400879 0.065552 0.400879 0.089355 0.400879 0.112671 0.260254 0.092285 0.260254 0.089355 0.256348 0.061554 0.256836 0.061554 0.260254 0.399414 0.605469 0.418701 0.005859 0.420898 0.605469 0.396729 0.005859 0.375244 0.005859 0.375244 0.605469 0.526367 0.605469 0.524414 0.005859 0.484619 0.005859 0.564453 0.271484 0.568848 0.005859 0.569336 0.271484 0.546387 0.005859 0.547852 0.273926 0.54834 0.316406 0.545898 0.605469 0.567871 0.605469 0.563477 0.313477 0.568359 0.311523 0.647949 0.256348 0.685547 0.283691 0.647461 0.287109 0.612305 0.29834 0.590332 0.304688 0.822266 0.282715 0.758789 0.254883 0.008286 0.416992 0.021973 0.407715 0.021973 0.416992 0.008286 0.407715 0.133545 0.188477 0.133545 0.151367 0.158325 0.226562 0.158325 0.247559 0.158325 0.264648 0.158325 0.295898 0.158325 0.151367 0.234985 0.125977 0.234985 0.158691 0.234985 0.084473 0.234985 0.003906 0.20105 0.105957 0.20105 0.293457 0.234985 0.276855 0.234985 0.242188 0.234985 0.228027 0.234985 0.209961 0.234985 0.194336 0.234985 0.347656 0.20105 0.375488 0.20105 0.456055 0.20105 0.327637 0.234985 0.456055 0.23999 0.20166 0.23999 0.289062 0.266846 0.181152 0.266846 0.101562 0.266846 0.246094 0.266846 0.289062 0.02182 0.525391 0.136597 0.525391 0.02182 0.548584 0.168945 0.572021 0.168945 0.567871 0.168945 0.548584 0.154297 0.525391 0.168945 0.525391 0.018768 0.549316 0.018768 0.572021 0.02182 0.572021 0.413574 0.621582 0.426514 0.614746 0.479248 0.6875 0.460449 0.702148 0.441162 0.706787 0.426514 0.704346 0.413574 0.697754 0.403076 0.687256 0.479492 0.63208 0.480957 0.638672 0.436523 0.612549 0.436768 0.61084 0.455078 0.61377 0.468994 0.621826 0.456299 0.613281 0.299072 0.062988 0.267822 0.077148 0.299072 0.045898 0.298828 0.03418 0.267822 0.03418 0.251953 0.03418 0.238648 0.077148 0.251953 0.077148 0.238648 0.42334 0.238648 0.45459 0.238648 0.40625 0.238648 0.385254 0.238648 0.310059 0.263428 0.45459 0.027328 0.473145 0.019897 0.490234 0.01564 0.477051 0.013901 0.521729 0.045532 0.521973 0.065735 0.521973 0.124268 0.490234 0.124268 0.498047 0.105774 0.521973 0.086792 0.521973 0.148193 0.481445 0.124268 0.470703 0.124268 0.51831 0.124268 0.521973 0.13855 0.514893 0.137817 0.511231 0.368897 0.006348 0.334961 0.086914 0.334961 0.006348 0.368897 0.161133 0.334961 0.212402 0.334961 0.108398 0.334961 0.128418 0.368897 0.196777 0.368897 0.244629 0.368897 0.295898 0.334961 0.350098 0.334961 0.230469 0.368897 0.330078 0.368897 0.37793 0.368897 0.458496 0.07843 0.463379 0.021973 0.463379 0.07843 0.452637 0.07843 0.407715 0.07843 0.416992 0.07843 0.427734 0.008286 0.463379 0.183228 0.041992 0.197266 0.041992 0.19751 0.050293 0.150635 0.050293 0.197754 0.062012 0.197754 0.093262 0.183472 0.107422 0.197754 0.107422 0.166504 0.093262 0.150635 0.093262 0.137329 0.093262 0.137329 0.079102 0.267334 0.303711 0.267334 0.374512 0.267334 0.393555 0.267334 0.456055 0.296387 0.419922 0.296143 0.374512 0.296143 0.303711 0.147339 0.453613 0.146729 0.417969 0.146484 0.391113 0.146606 0.301758 0.117859 0.372559 0.269775 0.182617 0.269775 0.098633 0.269775 0.296387 0.29834 0.204102 0.29834 0.098633 0.29834 0.250977 0.29834 0.296387 0.331055 0.063965 0.331055 0.003906 0.331055 0.458496 0.331055 0.443848 0.331055 0.422852 0.331055 0.402832 0.331055 0.380371 0.331055 0.32373 0.331055 0.140625 0.331055 0.088867 0.835938 0.847046 0.960938 0.876953 0.849121 0.824341 0.874512 0.805542 0.905762 0.805176 0.931152 0.823242 0.949219 0.852905 0.992676 0.957611 0.974609 0.9832 0.944824 0.993263 0.839844 0.994568 0.78418 0.985558 0.734375 0.99588 0.70459 0.986557 0.685547 0.961426 0.685059 0.930054 0.703125 0.904419 0.725098 0.876953 0.736816 0.839844 0.814453 0.813477 0.784668 0.804199 0.754883 0.814209 0.743652 0.632568 0.77002 0.613281 0.842285 0.661133 0.719727 0.695557 0.702148 0.711426 0.683106 0.737793 0.683594 0.77002 0.702637 0.796265 0.733398 0.806274 0.784668 0.796021 0.839844 0.80603 0.996094 0.769409 0.995606 0.73706 0.976562 0.710938 0.861816 0.620606 0.16272 0.286133 0.16272 0.240723 0.16272 0.187012 0.16272 0.145508 0.197388 0.117676 0.16272 0.38623 0.16272 0.335938 0.16272 0.3125 0.19751 0.361816 0.19751 0.40625 0.19751 0.424316 0.19751 0.442871 0.19751 0.455566 0.645996 0.97757 0.681152 0.931702 0.589356 0.811523 0.532715 0.829102 0.497559 0.875 0.589356 0.995102 0.116211 0.816284 0.109924 0.814331 0.018158 0.848877 0.007309 0.782715 0.01712 0.716797 0.048126 0.90863 0.221069 0.666016 0.291504 0.585938 0.225342 0.573731 0.157227 0.583252 0.047882 0.657959 0.417969 0.853149 0.427734 0.790649 0.183716 0.895447 0.152954 0.984512 0.217896 0.899109 0.416748 0.876709 0.184204 0.893982 0.061462 0.25 0.061462 0.187012 0.095093 0.187012 0.126709 0.187012 0.126709 0.172363 0.110779 0.172363 0.005039 0.126465 0.005039 0.101562 0.005039 0.069824 0.005039 0.151855 0.111389 0.050293 0.126831 0.166016 0.127564 0.050293 0.094177 0.183105 0.078247 0.183105 0.060761 0.05127 0.060761 0.166504 0.674316 0.736572 0.63916 0.634033 0.58252 0.616455 0.525391 0.634033 0.490479 0.736572 0.63916 0.782471 0.490479 0.679932 0.053406 0.197266 0.004047 0.279785 0.004047 0.229492 0.053284 0.229492 0.053284 0.254395 0.053284 0.279785 0.13623 0.011719 0.13623 0.035156 0.781738 0.005859 0.759766 0.005859 0.725098 0.005859 0.648926 0.005859 0.136352 0.146973 0.155151 0.135742 0.155029 0.146973 0.136352 0.135742 0.155151 0.123535 0.136352 0.123535 0.589356 0.605469 0.61084 0.605469 0.646484 0.605469 0.684082 0.605469 0.301514 0.23584 0.018662 0.397461 0.057678 0.289551 0.056519 0.397461 0.444824 0.873901 0.472656 0.882446 0.48999 0.905151 0.48999 0.933167 0.472656 0.95581 0.399414 0.905151 0.416748 0.882446 0.009056 0.579102 0.009605 0.661133 0.037415 0.660889 0.036865 0.578857 0.432129 0.793823 0.478272 0.854004 0.506348 0.845337</float_array>
          <technique_common>
            <accessor source="#GeometrySource2-array" count="886" stride="2">
              <param name="S" type="float"/>
              <param name="T" type="float"/>
            </accessor>
          </technique_common>
        </source>
        <vertices id="Geometry-vertices">
          <input semantic="POSITION" source="#GeometrySource"/>
          <input semantic="NORMAL" source="#GeometrySource1"/>
          <input semantic="TEXCOORD" source="#GeometrySource2"/>
        </vertices>
        <triangles material="VisualMaterial0" count="1077">
          <input semantic="VERTEX" source="#Geometry-vertices" offset="0"/>
          <p>0 1 2 3 4 5 1 5 2 2 6 0 7 6 2 7 2 5 8 7 5 5 4 8 7 8 9 7 9 10 6 7 10 11 12 13 14 15 16 15 17 16 18 16 17 14 19 15 20 21 22 23 24 25 26 24 23 27 28 29 30 31 32 27 31 30 27 33 31 29 33 27 29 34 33 34 29 35 35 36 34 37 38 39 34 39 38 34 36 39 40 41 42 41 40 43 40 44 43 43 44 45 46 43 45 45 47 46 48 46 47 47 49 48 50 49 47 47 45 50 43 51 41 51 43 46 46 48 51 52 53 49 53 48 49 53 52 54 54 55 53 56 57 58 57 56 59 56 60 59 60 56 61 61 62 60 62 61 63 63 64 62 65 61 56 66 58 67 57 67 58 68 67 57 67 68 69 70 59 60 60 71 70 71 60 62 72 71 62 62 64 72 73 72 64 72 73 74 75 76 77 78 75 77 75 78 74 79 74 78 74 79 72 71 72 79 80 74 73 74 80 75 80 81 75 76 75 81 82 76 81 81 83 82 84 85 86 85 84 87 84 83 87 87 83 88 83 89 88 89 83 81 81 80 89 90 91 92 92 93 90 93 94 90 87 95 85 95 87 96 88 96 87 93 86 85 86 93 97 93 92 97 97 92 98 91 90 99 94 99 90 100 101 102 100 102 103 104 103 102 103 104 105 106 104 102 106 102 107 101 107 102 108 109 110 108 106 111 107 111 106 112 111 107 101 112 107 109 111 113 111 109 108 114 115 116 115 114 117 118 115 119 120 118 119 121 119 115 115 118 116 118 122 116 118 120 123 122 118 124 125 126 127 127 126 128 127 129 130 127 130 131 127 131 132 133 134 135 134 133 136 137 138 135 139 140 141 137 142 138 142 137 143 142 143 141 143 144 145 144 143 137 146 145 147 144 147 145 147 144 148 149 150 151 150 152 151 152 150 153 153 154 152 154 153 155 155 156 154 156 155 157 158 157 155 150 149 159 159 160 150 161 150 160 153 150 161 158 153 161 155 153 158 160 159 162 163 164 165 164 166 165 166 164 167 166 167 168 169 168 167 168 169 170 164 169 167 169 164 171 172 168 170 170 173 172 169 174 170 164 175 171 175 164 176 164 163 176 177 176 163 176 177 178 179 176 178 176 179 175 180 181 182 180 183 181 184 182 181 185 184 181 183 185 181 185 183 186 186 187 185 187 186 188 188 189 187 190 191 192 193 190 194 194 195 193 196 193 195 195 197 196 187 196 197 197 185 187 185 197 198 184 185 198 196 187 189 189 199 196 196 199 193 200 193 199 193 200 190 191 190 200 201 191 200 191 201 202 203 204 205 206 205 204 205 206 207 206 208 207 209 207 208 208 191 209 191 208 192 210 192 208 208 206 210 207 209 211 212 207 211 207 212 205 213 205 212 205 213 203 213 214 203 214 213 215 216 213 212 217 215 218 215 217 214 217 219 214 219 217 220 221 222 223 224 223 222 225 226 227 228 225 227 228 229 230 229 231 230 228 232 225 233 225 232 225 233 234 232 228 230 232 230 231 233 235 234 236 234 235 44 40 237 238 239 240 239 238 241 242 241 238 238 243 242 244 238 240 240 245 246 245 240 239 239 247 245 248 239 241 243 249 242 249 243 250 251 252 253 253 252 254 252 255 254 254 255 256 255 257 256 257 255 258 257 259 260 258 259 257 259 258 261 261 258 262 252 263 255 264 263 252 251 264 252 264 251 265 266 267 268 266 268 269 270 268 271 267 271 268 272 273 274 274 275 272 270 272 275 272 270 276 271 276 270 266 277 267 273 276 278 276 273 272 279 280 281 280 279 282 282 279 283 279 284 283 285 284 279 279 286 285 287 285 286 288 287 286 286 281 288 281 286 279 287 288 289 290 287 289 289 291 290 292 290 291 290 292 293 294 293 292 293 294 295 296 295 294 295 296 297 296 298 297 296 299 298 299 300 298 301 297 298 298 302 301 302 298 300 300 303 302 303 300 304 300 299 305 305 304 300 305 306 304 292 291 307 308 309 310 308 311 312 313 314 315 316 317 318 316 319 317 316 320 319 321 322 323 321 323 324 325 326 327 326 325 328 329 330 327 330 325 327 331 325 330 332 325 333 325 332 328 332 334 328 335 328 334 334 336 335 337 335 336 338 337 336 337 338 339 340 339 338 339 340 341 328 342 326 342 328 335 335 343 342 343 335 337 344 343 337 337 339 344 339 345 344 345 339 341 346 345 341 346 341 340 347 348 349 350 351 352 351 350 353 354 351 353 354 353 355 348 354 355 354 348 356 347 356 348 356 347 346 345 346 347 346 357 356 352 358 359 352 359 350 360 350 359 350 360 361 361 353 350 353 361 362 362 355 353 355 362 363 364 365 366 366 365 367 367 365 368 369 365 364 370 366 367 367 371 370 371 367 368 371 368 372 368 365 372 372 365 373 373 365 374 374 365 375 376 374 375 377 376 375 375 365 377 377 365 369 369 378 377 376 377 378 379 380 381 382 383 379 383 382 384 382 385 384 379 381 386 379 386 387 379 387 388 387 389 388 379 388 390 379 390 391 387 392 389 393 394 395 395 394 396 397 398 399 400 393 401 394 393 400 379 394 400 379 396 394 379 391 396 379 397 399 379 401 397 379 400 401 402 403 404 403 402 405 379 406 405 406 379 399 407 406 399 399 398 407 408 409 407 406 407 409 406 409 403 403 405 406 410 411 412 413 414 415 416 417 418 419 420 416 419 416 418 418 421 419 421 418 422 422 423 421 424 421 423 423 425 424 426 424 425 419 421 420 424 420 421 420 424 427 428 420 427 420 428 429 430 425 423 424 426 427 426 431 427 427 431 428 417 420 429 420 417 416 432 433 434 433 435 434 433 436 437 436 433 438 433 432 438 439 440 441 442 439 441 443 442 441 440 444 441 439 445 440 444 446 441 446 447 441 447 448 441 449 443 441 450 449 441 448 450 441 451 452 448 447 451 448 453 454 455 456 457 453 458 457 459 458 460 457 460 458 461 462 460 461 460 462 463 464 460 463 460 464 465 466 454 464 464 454 465 454 453 465 453 460 465 460 453 457 467 468 469 468 467 470 471 468 470 468 471 472 472 471 473 472 473 474 475 476 477 475 477 478 479 475 478 475 479 480 481 482 483 481 484 482 484 485 482 485 484 486 487 488 489 490 491 492 492 491 493 494 495 496 495 494 497 297 301 498 499 297 498 297 499 295 500 295 499 295 500 293 500 290 293 290 501 287 285 287 501 502 503 504 504 505 502 505 504 506 505 506 507 508 507 506 509 510 511 510 512 511 513 514 515 514 513 516 514 516 517 517 518 514 519 520 521 520 519 522 522 523 520 523 522 524 525 526 527 527 526 528 529 526 530 531 526 532 532 526 525 533 534 535 1 0 534 533 1 534 533 5 1 5 533 3 4 3 536 537 4 536 4 537 538 539 4 538 0 6 540 4 539 8 539 9 8 6 10 541 541 542 6 542 540 6 540 542 543 10 9 541 541 9 544 545 544 9 544 545 546 9 539 545 547 548 481 547 481 483 548 549 550 548 551 549 548 547 551 552 551 547 552 553 551 552 554 553 554 552 555 554 555 556 556 557 554 557 556 11 11 556 12 11 13 558 559 560 561 562 18 17 17 563 562 564 563 17 15 564 17 564 15 561 19 561 15 561 19 559 19 565 559 565 19 566 19 14 566 566 14 567 14 568 567 568 14 16 16 569 568 16 18 569 570 571 572 571 570 573 573 570 574 575 574 570 576 21 577 21 576 22 21 20 578 23 578 20 578 23 25 26 571 24 572 571 26 579 580 581 579 582 580 579 583 582 582 583 577 583 576 577 576 583 584 576 584 585 585 584 586 587 586 584 586 587 588 589 489 590 589 590 591 491 589 591 491 591 592 493 491 592 493 592 593 493 593 581 588 581 593 35 484 594 484 35 486 29 486 35 486 29 28 28 27 595 30 595 27 595 30 488 489 488 30 489 30 590 36 35 594 594 550 36 550 594 548 550 549 37 37 549 38 596 597 598 597 596 599 49 50 600 600 601 52 600 52 49 53 602 48 48 602 603 48 603 51 51 603 604 51 604 41 604 42 41 42 604 605 55 602 53 55 54 606 607 608 63 607 63 61 61 65 607 56 609 65 609 56 58 66 609 58 609 66 610 57 611 68 611 57 59 59 70 611 83 612 82 612 83 84 86 612 84 88 89 613 613 89 614 80 614 89 614 80 615 80 616 615 616 80 73 617 616 73 617 73 64 608 617 64 608 64 63 94 93 618 618 93 85 618 85 95 96 88 613 619 98 92 91 619 92 619 91 620 98 621 97 97 621 86 612 86 621 94 622 99 104 106 623 624 110 109 623 108 110 108 623 106 625 112 101 100 625 101 625 100 626 111 112 627 627 113 111 113 627 628 629 630 631 114 631 630 631 114 116 119 632 120 119 633 632 119 121 633 115 634 121 634 115 117 635 634 117 117 630 635 630 117 114 636 634 635 116 122 631 631 122 637 124 637 122 637 124 638 638 124 639 118 639 124 639 118 123 127 640 641 127 128 642 127 642 643 127 643 644 127 644 645 127 645 646 127 646 647 127 647 129 648 649 127 649 125 127 650 641 651 641 650 127 650 652 127 652 653 127 127 653 648 653 652 654 135 655 133 656 137 135 655 135 138 142 655 138 655 142 657 142 658 657 141 658 142 140 658 141 143 659 141 143 660 659 660 143 145 145 146 660 144 661 148 661 144 662 144 656 662 137 656 144 663 156 664 156 663 154 154 663 665 152 154 665 665 151 152 151 665 666 666 667 149 666 149 151 157 158 668 168 669 166 670 671 669 669 168 670 168 172 670 173 170 672 174 672 170 174 169 673 169 674 673 674 169 171 171 175 674 675 178 177 178 675 676 676 179 178 677 175 179 175 677 678 674 175 678 679 675 680 177 680 675 179 676 681 681 677 179 677 681 682 681 683 682 683 681 684 684 681 676 183 180 685 182 686 687 686 182 184 188 688 189 192 689 190 689 194 190 690 184 198 184 690 686 197 195 691 691 198 197 198 691 690 688 199 189 688 692 199 692 200 199 692 201 200 693 191 202 191 693 209 693 694 209 211 209 694 219 695 214 203 214 695 695 204 203 689 192 696 192 210 696 697 211 694 211 697 212 216 212 697 698 213 216 213 698 215 698 218 215 698 699 218 700 701 702 703 598 597 598 703 704 598 704 224 705 224 704 702 224 705 224 702 223 702 701 223 701 706 223 221 223 706 224 222 596 596 598 224 707 708 227 708 709 227 234 236 710 710 225 234 225 710 226 709 228 227 228 709 711 229 228 711 231 229 712 712 713 231 713 712 714 715 232 231 715 233 232 233 715 716 717 233 716 233 717 718 235 233 718 250 243 719 719 243 720 243 721 720 721 243 238 244 721 238 240 722 244 722 240 246 247 239 723 239 248 723 241 724 248 241 242 724 242 249 724 725 724 249 254 726 253 726 254 727 254 256 727 728 727 256 257 728 256 728 257 260 729 260 259 730 262 258 255 730 258 730 255 263 269 268 731 731 732 269 270 275 731 268 270 731 733 274 273 734 276 271 271 267 734 734 267 277 277 266 735 276 734 736 736 278 276 278 736 737 738 280 739 738 288 281 280 738 281 305 740 306 741 740 305 299 741 305 741 299 742 296 742 299 742 296 743 296 294 743 294 744 743 292 744 294 744 292 745 307 745 292 746 307 291 291 289 746 289 747 746 747 289 288 288 738 747 748 308 312 308 748 749 750 749 748 749 750 751 749 751 752 749 752 753 749 753 754 308 749 309 308 310 755 308 755 756 308 756 757 308 757 311 311 758 312 758 759 312 312 759 760 761 312 760 762 312 761 762 763 312 764 312 763 765 312 764 765 748 312 748 765 766 766 767 748 766 768 767 766 769 768 313 770 771 313 771 314 313 315 772 318 313 772 772 316 318 313 318 773 773 318 774 774 318 775 776 775 318 776 318 777 777 318 778 318 779 778 780 779 318 317 780 318 316 781 320 316 782 781 316 783 782 316 321 783 316 772 321 321 772 784 321 784 322 342 785 786 786 326 342 326 786 787 787 788 326 327 326 788 788 329 327 789 325 331 325 789 333 355 790 348 790 349 348 349 791 347 345 347 791 791 792 345 344 345 792 792 343 344 343 792 785 785 342 343 346 340 793 357 346 793 356 357 794 354 356 794 795 354 794 354 795 351 796 351 795 351 796 352 796 797 352 352 797 358 790 355 363 798 369 364 366 798 364 798 366 799 366 370 799 800 371 372 800 372 373 373 801 800 373 802 801 802 373 374 374 376 802 369 798 803 378 369 803 380 804 805 806 805 384 805 806 807 807 380 805 380 807 808 381 808 386 808 381 380 804 380 379 383 804 379 384 385 809 384 809 806 810 391 390 811 396 391 811 391 810 810 812 811 810 813 812 389 813 810 389 392 813 387 814 392 386 814 387 386 808 814 396 811 395 398 397 815 397 816 815 816 397 401 401 393 816 817 404 818 404 817 402 819 405 402 405 819 379 815 820 398 819 821 379 821 382 379 382 821 817 817 818 382 382 818 385 411 822 823 822 411 410 824 412 411 824 415 412 415 824 413 414 413 825 826 825 413 826 413 827 428 431 828 828 429 428 429 828 829 829 830 429 830 417 429 831 828 431 832 833 435 833 832 834 434 835 836 432 434 836 435 433 832 438 432 837 838 837 432 440 839 444 839 440 445 445 439 840 439 841 840 841 439 442 841 442 842 842 442 443 449 842 443 839 446 444 448 843 450 843 448 452 844 451 447 844 447 446 446 839 844 842 449 845 450 845 449 845 450 843 458 846 461 455 847 453 453 847 456 457 456 848 848 459 457 461 846 462 846 463 462 463 846 849 849 850 463 850 464 463 850 466 464 466 850 851 852 469 853 469 852 467 28 485 486 485 28 854 595 854 28 854 595 855 488 855 595 855 488 856 856 488 487 487 489 857 857 489 589 857 589 490 490 589 491 493 580 492 580 493 581 858 859 860 859 858 861 861 862 859 862 861 863 862 863 496 862 496 495 588 864 586 864 588 593 593 865 864 592 865 593 592 866 865 591 866 592 591 867 866 590 867 591 590 32 867 30 32 590 290 500 868 501 290 868 503 502 869 870 507 508 507 870 871 872 873 511 873 874 511 874 875 511 875 876 511 876 509 511 512 877 511 877 878 511 878 872 511 879 515 880 513 515 879 518 517 881 882 881 517 528 526 883 883 526 529 530 526 884 884 526 885 885 526 531</p>
        </triangles>
      </mesh>
    </geometry>
  </library_geometries>
  <library_controllers>
    <controller id="Controller">
      <skin source="#Geometry">
        <bind_shape_matrix>1 0 0 0 0 1 0 0 0 0 1 0 0 0 0 1</bind_shape_matrix>
        <source id="Controller-joints">
          <Name_array id="Controller-joints-array" count="4">Armature Reference Root grab_location</Name_array>
          <technique_common>
            <accessor source="#Controller-joints-array" count="4" stride="1">
              <param name="JOINT" type="Name"/>
            </accessor>
          </technique_common>
        </source>
        <source id="Controller-bind_poses">
          <float_array id="Controller-bind_poses-array" count="64">1 0 0 0 0 1 -0.000000 0 0 0.000000 1 0 0 0 0 1 0.000000 0.000000 1 0 -0.000000 1 -0.000000 0 -1 -0.000000 0.000000 0 0 0 0 1 0.000000 0.000000 1 0 -0.000000 1 -0.000000 0 -1 -0.000000 0.000000 0 0 0 0 1 0.000000 0.000000 0.999999 0 -0.000000 1 -0.000000 0 -1 -0.000000 0.000000 0 0 0 0 1</float_array>
          <technique_common>
            <accessor source="#Controller-bind_poses-array" count="4" stride="16">
              <param name="TRANSFORM" type="float4x4"/>
            </accessor>
          </technique_common>
        </source>
        <source id="Controller-weights">
          <float_array id="Controller-weights-array" count="1">1</float_array>
          <technique_common>
            <accessor source="#Controller-weights-array" count="1" stride="1">
              <param name="WEIGHT" type="float"/>
            </accessor>
          </technique_common>
        </source>
        <joints>
          <input semantic="JOINT" source="#Controller-joints"/>
          <input semantic="INV_BIND_MATRIX" source="#Controller-bind_poses"/>
        </joints>
        <vertex_weights count="886">
          <input semantic="JOINT" source="#Controller-joints" offset="0"/>
          <input semantic="WEIGHT" source="#Controller-weights" offset="1"/>
          <vcount>1 1 1 1 1 1 1 1 1 1 1 1 1 1 1 1 1 1 1 1 1 1 1 1 1 1 1 1 1 1 1 1 1 1 1 1 1 1 1 1 1 1 1 1 1 1 1 1 1 1 1 1 1 1 1 1 1 1 1 1 1 1 1 1 1 1 1 1 1 1 1 1 1 1 1 1 1 1 1 1 1 1 1 1 1 1 1 1 1 1 1 1 1 1 1 1 1 1 1 1 1 1 1 1 1 1 1 1 1 1 1 1 1 1 1 1 1 1 1 1 1 1 1 1 1 1 1 1 1 1 1 1 1 1 1 1 1 1 1 1 1 1 1 1 1 1 1 1 1 1 1 1 1 1 1 1 1 1 1 1 1 1 1 1 1 1 1 1 1 1 1 1 1 1 1 1 1 1 1 1 1 1 1 1 1 1 1 1 1 1 1 1 1 1 1 1 1 1 1 1 1 1 1 1 1 1 1 1 1 1 1 1 1 1 1 1 1 1 1 1 1 1 1 1 1 1 1 1 1 1 1 1 1 1 1 1 1 1 1 1 1 1 1 1 1 1 1 1 1 1 1 1 1 1 1 1 1 1 1 1 1 1 1 1 1 1 1 1 1 1 1 1 1 1 1 1 1 1 1 1 1 1 1 1 1 1 1 1 1 1 1 1 1 1 1 1 1 1 1 1 1 1 1 1 1 1 1 1 1 1 1 1 1 1 1 1 1 1 1 1 1 1 1 1 1 1 1 1 1 1 1 1 1 1 1 1 1 1 1 1 1 1 1 1 1 1 1 1 1 1 1 1 1 1 1 1 1 1 1 1 1 1 1 1 1 1 1 1 1 1 1 1 1 1 1 1 1 1 1 1 1 1 1 1 1 1 1 1 1 1 1 1 1 1 1 1 1 1 1 1 1 1 1 1 1 1 1 1 1 1 1 1 1 1 1 1 1 1 1 1 1 1 1 1 1 1 1 1 1 1 1 1 1 1 1 1 1 1 1 1 1 1 1 1 1 1 1 1 1 1 1 1 1 1 1 1 1 1 1 1 1 1 1 1 1 1 1 1 1 1 1 1 1 1 1 1 1 1 1 1 1 1 1 1 1 1 1 1 1 1 1 1 1 1 1 1 1 1 1 1 1 1 1 1 1 1 1 1 1 1 1 1 1 1 1 1 1 1 1 1 1 1 1 1 1 1 1 1 1 1 1 1 1 1 1 1 1 1 1 1 1 1 1 1 1 1 1 1 1 1 1 1 1 1 1 1 1 1 1 1 1 1 1 1 1 1 1 1 1 1 1 1 1 1 1 1 1 1 1 1 1 1 1 1 1 1 1 1 1 1 1 1 1 1 1 1 1 1 1 1 1 1 1 1 1 1 1 1 1 1 1 1 1 1 1 1 1 1 1 1 1 1 1 1 1 1 1 1 1 1 1 1 1 1 1 1 1 1 1 1 1 1 1 1 1 1 1 1 1 1 1 1 1 1 1 1 1 1 1 1 1 1 1 1 1 1 1 1 1 1 1 1 1 1 1 1 1 1 1 1 1 1 1 1 1 1 1 1 1 1 1 1 1 1 1 1 1 1 1 1 1 1 1 1 1 1 1 1 1 1 1 1 1 1 1 1 1 1 1 1 1 1 1 1 1 1 1 1 1 1 1 1 1 1 1 1 1 1 1 1 1 1 1 1 1 1 1 1 1 1 1 1 1 1 1 1 1 1 1 1 1 1 1 1 1 1 1 1 1 1 1 1 1 1 1 1 1 1 1 1 1 1 1 1 1 1 1 1 1 1 1 1 1 1 1 1 1 1 1 1 1 1 1 1 1 1 1 1 1 1 1 1 1 1 1 1 1 1 1 1 1 1 1 1 1 1 1 1 1 1 1 1 1 1 1 1 1 1 1 1 1 1 1 1 1 1 1 1 1 1 1 1 1 1 1 1 1 1 1 1 1 1 1 1 1 1 1 1 1 1 1 1 1 1 1 1 1 1 1 1 1 1 1 1 1 1 </vcount>
          <v>2 0 2 0 2 0 2 0 2 0 2 0 2 0 2 0 2 0 2 0 2 0 2 0 2 0 2 0 2 0 2 0 2 0 2 0 2 0 2 0 2 0 2 0 2 0 2 0 2 0 2 0 2 0 2 0 2 0 2 0 2 0 2 0 2 0 2 0 2 0 2 0 2 0 2 0 2 0 2 0 2 0 2 0 2 0 2 0 2 0 2 0 2 0 2 0 2 0 2 0 2 0 2 0 2 0 2 0 2 0 2 0 2 0 2 0 2 0 2 0 2 0 2 0 2 0 2 0 2 0 2 0 2 0 2 0 2 0 2 0 2 0 2 0 2 0 2 0 2 0 2 0 2 0 2 0 2 0 2 0 2 0 2 0 2 0 2 0 2 0 2 0 2 0 2 0 2 0 2 0 2 0 2 0 2 0 2 0 2 0 2 0 2 0 2 0 2 0 2 0 2 0 2 0 2 0 2 0 2 0 2 0 2 0 2 0 2 0 2 0 2 0 2 0 2 0 2 0 2 0 2 0 2 0 2 0 2 0 2 0 2 0 2 0 2 0 2 0 2 0 2 0 2 0 2 0 2 0 2 0 2 0 2 0 2 0 2 0 2 0 2 0 2 0 2 0 2 0 2 0 2 0 2 0 2 0 2 0 2 0 2 0 2 0 2 0 2 0 2 0 2 0 2 0 2 0 2 0 2 0 2 0 2 0 2 0 2 0 2 0 2 0 2 0 2 0 2 0 2 0 2 0 2 0 2 0 2 0 2 0 2 0 2 0 2 0 2 0 2 0 2 0 2 0 2 0 2 0 2 0 2 0 2 0 2 0 2 0 2 0 2 0 2 0 2 0 2 0 2 0 2 0 2 0 2 0 2 0 2 0 2 0 2 0 2 0 2 0 2 0 2 0 2 0 2 0 2 0 2 0 2 0 2 0 2 0 2 0 2 0 2 0 2 0 2 0 2 0 2 0 2 0 2 0 2 0 2 0 2 0 2 0 2 0 2 0 2 0 2 0 2 0 2 0 2 0 2 0 2 0 2 0 2 0 2 0 2 0 2 0 2 0 2 0 2 0 2 0 2 0 2 0 2 0 2 0 2 0 2 0 2 0 2 0 2 0 2 0 2 0 2 0 2 0 2 0 2 0 2 0 2 0 2 0 2 0 2 0 2 0 2 0 2 0 2 0 2 0 2 0 2 0 2 0 2 0 2 0 2 0 2 0 2 0 2 0 2 0 2 0 2 0 2 0 2 0 2 0 2 0 2 0 2 0 2 0 2 0 2 0 2 0 2 0 2 0 2 0 2 0 2 0 2 0 2 0 2 0 2 0 2 0 2 0 2 0 2 0 2 0 2 0 2 0 2 0 2 0 2 0 2 0 2 0 2 0 2 0 2 0 2 0 2 0 2 0 2 0 2 0 2 0 2 0 2 0 2 0 2 0 2 0 2 0 2 0 2 0 2 0 2 0 2 0 2 0 2 0 2 0 2 0 2 0 2 0 2 0 2 0 2 0 2 0 2 0 2 0 2 0 2 0 2 0 2 0 2 0 2 0 2 0 2 0 2 0 2 0 2 0 2 0 2 0 2 0 2 0 2 0 2 0 2 0 2 0 2 0 2 0 2 0 2 0 2 0 2 0 2 0 2 0 2 0 2 0 2 0 2 0 2 0 2 0 2 0 2 0 2 0 2 0 2 0 2 0 2 0 2 0 2 0 2 0 2 0 2 0 2 0 2 0 2 0 2 0 2 0 2 0 2 0 2 0 2 0 2 0 2 0 2 0 2 0 2 0 2 0 2 0 2 0 2 0 2 0 2 0 2 0 2 0 2 0 2 0 2 0 2 0 2 0 2 0 2 0 2 0 2 0 2 0 2 0 2 0 2 0 2 0 2 0 2 0 2 0 2 0 2 0 2 0 2 0 2 0 2 0 2 0 2 0 2 0 2 0 2 0 2 0 2 0 2 0 2 0 2 0 2 0 2 0 2 0 2 0 2 0 2 0 2 0 2 0 2 0 2 0 2 0 2 0 2 0 2 0 2 0 2 0 2 0 2 0 2 0 2 0 2 0 2 0 2 0 2 0 2 0 2 0 2 0 2 0 2 0 2 0 2 0 2 0 2 0 2 0 2 0 2 0 2 0 2 0 2 0 2 0 2 0 2 0 2 0 2 0 2 0 2 0 2 0 2 0 2 0 2 0 2 0 2 0 2 0 2 0 2 0 2 0 2 0 2 0 2 0 2 0 2 0 2 0 2 0 2 0 2 0 2 0 2 0 2 0 2 0 2 0 2 0 2 0 2 0 2 0 2 0 2 0 2 0 2 0 2 0 2 0 2 0 2 0 2 0 2 0 2 0 2 0 2 0 2 0 2 0 2 0 2 0 2 0 2 0 2 0 2 0 2 0 2 0 2 0 2 0 2 0 2 0 2 0 2 0 2 0 2 0 2 0 2 0 2 0 2 0 2 0 2 0 2 0 2 0 2 0 2 0 2 0 2 0 2 0 2 0 2 0 2 0 2 0 2 0 2 0 2 0 2 0 2 0 2 0 2 0 2 0 2 0 2 0 2 0 2 0 2 0 2 0 2 0 2 0 2 0 2 0 2 0 2 0 2 0 2 0 2 0 2 0 2 0 2 0 2 0 2 0 2 0 2 0 2 0 2 0 2 0 2 0 2 0 2 0 2 0 2 0 2 0 2 0 2 0 2 0 2 0 2 0 2 0 2 0 2 0 2 0 2 0 2 0 2 0 2 0 2 0 2 0 2 0 2 0 2 0 2 0 2 0 2 0 2 0 2 0 2 0 2 0 2 0 2 0 2 0 2 0 2 0 2 0 2 0 2 0 2 0 2 0 2 0 2 0 2 0 2 0 2 0 2 0 2 0 2 0 2 0 2 0 2 0 2 0 2 0 2 0 2 0 2 0 2 0 2 0 2 0 2 0 2 0 2 0 2 0 2 0 2 0 2 0 2 0 2 0 2 0 2 0 2 0 2 0 2 0 2 0 2 0 2 0 2 0 2 0 2 0 2 0 2 0 2 0 2 0 2 0 2 0 2 0 2 0 2 0 2 0 2 0 2 0 2 0 2 0 2 0 2 0 2 0 2 0 2 0 2 0 2 0 2 0 2 0 2 0 2 0 2 0 2 0 2 0 2 0 2 0 2 0 2 0 2 0 2 0 2 0 2 0 2 0 2 0 2 0 2 0 2 0 2 0 2 0 2 0 2 0 2 0 2 0 2 0 2 0 2 0 2 0 2 0 2 0 2 0 2 0 2 0 2 0 2 0 2 0 2 0 2 0 2 0 2 0 2 0 2 0 2 0 2 0 2 0 2 0 2 0 2 0 2 0 2 0 2 0 2 0 2 0 2 0 2 0 2 0 2 0 2 0 2 0 2 0 2 0 2 0 2 0 2 0 2 0 2 0 2 0 2 0 2 0 2 0 2 0 2 0 2 0 2 0 2 0 2 0 2 0 2 0 2 0 2 0 2 0 2 0 2 0 2 0 2 0 2 0 2 0 2 0 2 0 2 0 2 0 2 0 2 0 2 0 2 0 2 0 2 0 2 0 2 0 2 0 2 0 2 0 2 0 2 0 2 0 2 0 2 0 2 0 2 0 2 0 2 0 2 0 2 0 2 0 2 0 2 0 2 0 2 0 2 0 2 0 2 0 2 0 2 0 2 0 2 0 2 0 2 0 2 0 2 0 2 0 2 0 2 0 2 0 2 0 2 0 2 0 2 0 2 0 2 0 2 0 2 0 2 0 2 0 2 0 2 0 2 0 2 0 2 0 2 0 2 0 2 0 2 0 2 0 2 0 2 0 2 0 2 0 2 0 2 0 2 0 2 0 2 0 2 0 2 0 2 0 2 0 2 0 2 0 2 0 2 0 2 0 2 0 2 0 2 0 2 0 2 0 2 0 2 0 2 0 2 0 2 0 2 0 2 0 2 0 2 0 2 0 2 0 2 0 2 0</v>
        </vertex_weights>
      </skin>
      <extra>
        <technique profile="FCOLLADA">
          <user_properties>SkinController</user_properties>
        </technique>
      </extra>
    </controller>
  </library_controllers>
  <library_visual_scenes>
    <visual_scene id="VisualSceneNode" name="rdmscene">
      <node id="VisualSceneNode1" name="Armature" sid="Armature" type="JOINT">
        <matrix>1 0 0 0 0 1 0.000000 0 0 -0.000000 1 0 0 0 0 1</matrix>
        <node id="VisualSceneNode2" name="Reference" sid="Reference" type="JOINT">
          <matrix>0.000000 -0.000000 -1 0 0 1 -0.000000 0 1 0 0.000000 0 0 0 0 1</matrix>
          <node id="VisualSceneNode3" name="Root" sid="Root" type="JOINT">
            <matrix>1 0 0 0 0 1 0 0 0 0 1 0 0 0 0 1</matrix>
            <node id="VisualSceneNode4" name="grab_location" sid="grab_location" type="JOINT">
              <matrix>0.999999 0 0 0 0 1 0 0 0 0 1 0 0 0 0 1</matrix>
            </node>
          </node>
        </node>
      </node>
      <node id="VisualSceneNode5" name="Bomb" type="NODE">
        <matrix>1 0 0 0 0 1 0 0 0 0 1 0 0 0 0 1</matrix>
        <instance_controller url="#Controller">
          <skeleton>#VisualSceneNode1</skeleton>
          <bind_material>
            <technique_common>
              <instance_material symbol="VisualMaterial0" target="#VisualMaterial"/>
            </technique_common>
          </bind_material>
        </instance_controller>
      </node>
    </visual_scene>
  </library_visual_scenes>
  <scene>
    <instance_visual_scene url="#VisualSceneNode"/>
  </scene>
</COLLADA>
