xof 0303txt 0032

Frame Root {
  FrameTransformMatrix {
     1.000000, 0.000000, 0.000000, 0.000000,
     0.000000,-0.000000, 1.000000, 0.000000,
     0.000000, 1.000000, 0.000000, 0.000000,
     0.000000, 0.000000, 0.000000, 1.000000;;
  }
  Frame entry_3 {
    FrameTransformMatrix {
       1.000000, 0.000000, 0.000000, 0.000000,
       0.000000, 1.000000, 0.000000, 0.000000,
       0.000000, 0.000000, 1.000000, 0.000000,
       0.000000, 0.000000, 0.000000, 1.000000;;
    }
    Mesh { // entry_3 mesh
      429;
      -1.856911;-0.714743; 0.017660;,
      -1.856911;-0.714743; 0.605660;,
      -1.730911;-0.714744; 0.605660;,
      -1.730911;-0.714744; 0.017660;,
      -0.259534;-1.070085; 0.643381;,
      -0.259534;-1.080145; 0.643381;,
      -0.159310;-1.080145; 0.643381;,
      -0.159310;-1.070085; 0.643381;,
      -0.259534;-1.080145; 0.804661;,
      -0.259534;-1.070085; 0.804661;,
      -0.159310;-1.070085; 0.804661;,
      -0.159310;-1.080145; 0.804661;,
      -1.703911;-0.829934; 0.840000;,
      -1.703911;-0.829934; 0.000000;,
      -1.883911;-0.829934; 0.000000;,
      -1.883911;-0.829934; 0.840000;,
       1.999999;-0.900001; 1.900000;,
      -0.433001;-0.900000; 1.700000;,
      -1.567000;-0.900000; 1.700000;,
      -2.000000;-0.900000; 1.900000;,
      -1.567000;-0.900000; 1.700000;,
      -1.567000;-0.900000; 0.100000;,
      -2.001109;-0.898244; 0.061596;,
      -2.000000;-0.900000; 1.900000;,
      -0.119422;-0.996254; 1.200000;,
      -0.119422;-1.064874; 0.840000;,
      -0.119422;-1.064874; 0.000000;,
      -0.119422;-0.996254; 0.000000;,
      -0.146422;-1.064874; 0.605660;,
      -0.146422;-1.180065; 0.605660;,
      -0.146422;-1.180065; 0.017660;,
      -0.146422;-1.064874; 0.017660;,
      -0.259822;-1.168546; 0.605660;,
      -0.259822;-1.168546; 0.586716;,
      -0.259822;-1.076393; 0.586716;,
      -0.259822;-1.076393; 0.605660;,
      -0.259534;-1.080145; 0.643381;,
      -0.259534;-1.070085; 0.643381;,
      -0.259534;-1.070085; 0.804661;,
      -0.259534;-1.080145; 0.804661;,
      -0.259822;-1.076393; 0.586716;,
      -0.259822;-1.168546; 0.586716;,
      -0.159022;-1.168546; 0.586716;,
      -0.159022;-1.076394; 0.586716;,
      -0.433000;-1.000000; 0.946316;,
      -0.433000;-0.900217; 1.122053;,
      -0.433000;-0.900217; 0.770579;,
      -1.743511;-0.726263; 0.605660;,
      -1.743511;-0.726263; 0.586716;,
      -1.743511;-0.818416; 0.586716;,
      -1.743511;-0.818416; 0.605660;,
      -1.567000;-0.900000; 0.100000;,
      -0.433000;-0.900000; 0.100000;,
       1.998868;-0.901736; 0.070525;,
      -2.001109;-0.898244; 0.061596;,
      -0.146782;-1.080145; 0.824821;,
      -0.159310;-1.080145; 0.804661;,
      -0.159310;-1.080145; 0.643381;,
      -0.146782;-1.080145; 0.623221;,
      -0.272062;-1.080145; 0.824821;,
      -0.259534;-1.080145; 0.804661;,
      -0.159310;-1.080145; 0.804661;,
      -0.146782;-1.080145; 0.824821;,
      -0.272062;-1.080145; 0.623221;,
      -0.259534;-1.080145; 0.643381;,
      -0.259534;-1.080145; 0.804661;,
      -0.272062;-1.080145; 0.824821;,
      -0.146782;-1.080145; 0.623221;,
      -0.159310;-1.080145; 0.643381;,
      -0.259534;-1.080145; 0.643381;,
      -0.272062;-1.080145; 0.623221;,
       2.000000; 1.000000; 0.000000;,
       2.000000;-1.000000; 0.000000;,
      -2.000000;-1.000000; 0.000000;,
      -2.000000; 1.000000; 0.000000;,
      -0.146422;-1.064874; 0.017660;,
      -0.146422;-1.180065; 0.017660;,
      -0.272422;-1.180065; 0.017660;,
      -0.272422;-1.064874; 0.017660;,
      -0.433000;-0.952668; 0.653421;,
      -0.433000;-0.952668; 0.536263;,
      -0.433000;-1.000000; 0.100000;,
      -0.433000;-1.000000; 0.946316;,
      -0.433000;-0.900217; 1.122053;,
      -0.216727;-0.900217; 1.122053;,
      -0.216840;-0.900217; 0.770579;,
      -0.433000;-0.900217; 0.770579;,
      -0.299422;-1.064874; 0.000000;,
      -0.299422;-0.996254; 0.000000;,
      -0.119422;-0.996254; 0.000000;,
      -0.119422;-1.064874; 0.000000;,
      -0.299422;-0.996254; 1.200000;,
      -0.299422;-1.064874; 0.840000;,
      -0.119422;-1.064874; 0.840000;,
      -0.119422;-0.996254; 1.200000;,
      -0.433000;-0.900217; 0.770579;,
      -0.433000;-0.952668; 0.653421;,
      -0.433000;-1.000000; 0.946316;,
      -1.856911;-0.829934; 0.605660;,
      -1.856911;-0.714743; 0.605660;,
      -1.856911;-0.714743; 0.017660;,
      -1.856911;-0.829934; 0.017660;,
      -1.883911;-0.898554; 1.200000;,
      -1.883911;-0.829934; 0.840000;,
      -1.883911;-0.829934; 0.000000;,
      -1.883911;-0.898554; 0.000000;,
      -0.433000;-0.952669; 1.356368;,
      -0.433000;-0.952669; 1.239210;,
      -0.433000;-1.000000; 0.946316;,
      -0.433001;-1.000000; 1.700000;,
      -0.272062;-1.064874; 0.623221;,
      -0.272062;-1.080145; 0.623221;,
      -0.272062;-1.080145; 0.824821;,
      -0.272062;-1.064874; 0.824821;,
      -0.433000;-0.952668; 0.653421;,
      -0.216878;-0.953247; 0.653421;,
      -0.216915;-0.953305; 0.536263;,
      -0.433000;-0.952668; 0.536263;,
      -0.433000;-0.900000; 1.473526;,
      -0.216614;-0.900217; 1.473526;,
      -0.216651;-0.952900; 1.356368;,
      -0.433000;-0.952669; 1.356368;,
      -0.433000;-0.952669; 1.239210;,
      -0.216689;-0.952958; 1.239210;,
      -0.216727;-0.900217; 1.122053;,
      -0.433000;-0.900217; 1.122053;,
      -0.433000;-0.900217; 0.770579;,
      -0.216840;-0.900217; 0.770579;,
      -0.216878;-0.953247; 0.653421;,
      -0.433000;-0.952668; 0.653421;,
       2.000000; 1.000000; 0.000000;,
      -2.000000; 1.000000; 0.000000;,
      -1.997747; 1.001726; 0.051549;,
       2.002230; 0.998234; 0.060478;,
      -0.216953;-0.900694; 0.419105;,
      -0.433000;-0.900000; 0.419105;,
      -0.433000;-0.952668; 0.536263;,
      -0.216915;-0.953305; 0.536263;,
      -1.844023;-0.814664; 0.804661;,
      -1.844023;-0.824724; 0.804661;,
      -1.844023;-0.824724; 0.643381;,
      -1.844023;-0.814664; 0.643381;,
      -1.731271;-0.829934; 0.623221;,
      -1.731271;-0.814664; 0.623221;,
      -1.731271;-0.814664; 0.824821;,
      -1.731271;-0.829934; 0.824821;,
      -0.433000;-0.952669; 1.239210;,
      -0.433000;-0.900217; 1.122053;,
      -0.433000;-1.000000; 0.946316;,
      -2.000000; 1.000000; 2.000000;,
       2.000000; 1.000000; 2.000000;,
       2.000000; 1.000000; 1.900000;,
      -2.000000; 1.000000; 1.900000;,
       2.000000; 1.000000; 2.000000;,
      -2.000000; 1.000000; 2.000000;,
      -2.000000;-1.000000; 2.000000;,
       1.999999;-1.000001; 2.000000;,
      -1.844311;-0.818415; 0.605660;,
      -1.844311;-0.818415; 0.586716;,
      -1.844311;-0.726262; 0.586716;,
      -1.844311;-0.726262; 0.605660;,
      -1.730911;-0.829934; 0.017660;,
      -1.730911;-0.714744; 0.017660;,
      -1.730911;-0.714744; 0.605660;,
      -1.730911;-0.829934; 0.605660;,
      -0.216689;-0.952958; 1.239210;,
      -0.216651;-0.952900; 1.356368;,
      -0.216614;-0.900217; 1.473526;,
      -0.216727;-0.900217; 1.122053;,
      -0.433000;-0.952669; 1.356368;,
      -0.216651;-0.952900; 1.356368;,
      -0.216689;-0.952958; 1.239210;,
      -0.433000;-0.952669; 1.239210;,
      -1.703911;-0.898554; 0.000000;,
      -1.703911;-0.829934; 0.000000;,
      -1.703911;-0.829934; 0.840000;,
      -1.703911;-0.898554; 1.200000;,
      -0.216840;-0.900217; 0.770579;,
      -0.216953;-0.900694; 0.419105;,
      -0.216915;-0.953305; 0.536263;,
      -0.216878;-0.953247; 0.653421;,
      -0.146782;-1.064874; 0.824821;,
      -0.146782;-1.080145; 0.824821;,
      -0.146782;-1.080145; 0.623221;,
      -0.146782;-1.064874; 0.623221;,
      -0.433001;-1.000000; 1.700000;,
      -1.567000;-1.000000; 1.700000;,
      -1.567000;-0.900000; 1.700000;,
      -0.433001;-0.900000; 1.700000;,
      -1.567000;-1.000000; 0.100000;,
      -0.433000;-1.000000; 0.100000;,
      -0.433000;-0.900000; 0.100000;,
      -1.567000;-0.900000; 0.100000;,
      -0.433000;-0.900000; 0.100000;,
      -0.433000;-1.000000; 0.100000;,
      -0.433000;-0.952668; 0.536263;,
      -0.433000;-0.900000; 0.419105;,
      -0.272062;-1.064874; 0.824821;,
      -0.272062;-1.080145; 0.824821;,
      -0.146782;-1.080145; 0.824821;,
      -0.146782;-1.064874; 0.824821;,
      -0.259822;-1.168546; 0.586716;,
      -0.259822;-1.168546; 0.605660;,
      -0.159022;-1.168546; 0.605660;,
      -0.159022;-1.168546; 0.586716;,
      -1.665538;-1.000000; 0.000000;,
      -1.704470;-1.072959; 0.000000;,
      -1.862531;-1.072959; 0.000000;,
      -1.901462;-1.000000; 0.000000;,
      -1.665538;-1.000000; 2.000000;,
      -1.704470;-1.072959; 1.937828;,
      -1.704470;-1.072959; 0.000000;,
      -1.665538;-1.000000; 0.000000;,
       2.000000; 1.000000; 2.000000;,
       1.999999;-1.000001; 2.000000;,
       1.999999;-0.900001; 1.900000;,
       2.000000; 1.000000; 1.900000;,
      -1.901463;-1.000000; 2.000000;,
      -1.862531;-1.072959; 1.937828;,
      -1.704470;-1.072959; 1.937828;,
      -1.665538;-1.000000; 2.000000;,
      -1.743799;-0.824724; 0.804661;,
      -1.743799;-0.824724; 0.643381;,
      -1.844023;-0.824724; 0.643381;,
      -1.844023;-0.824724; 0.804661;,
      -0.433001;-0.900000; 1.700000;,
      -0.433000;-0.900000; 1.473526;,
      -0.433000;-0.952669; 1.356368;,
      -0.433001;-1.000000; 1.700000;,
      -1.703911;-0.829934; 0.000000;,
      -1.703911;-0.898554; 0.000000;,
      -1.883911;-0.898554; 0.000000;,
      -1.883911;-0.829934; 0.000000;,
      -2.000000;-1.000000; 0.000000;,
      -2.001109;-0.898244; 0.061596;,
      -1.997747; 1.001726; 0.051549;,
      -2.000000; 1.000000; 0.000000;,
      -0.299422;-0.996254; 0.000000;,
      -0.299422;-1.064874; 0.000000;,
      -0.299422;-1.064874; 0.840000;,
      -0.299422;-0.996254; 1.200000;,
      -1.856911;-0.829934; 0.017660;,
      -1.856911;-0.714743; 0.017660;,
      -1.730911;-0.714744; 0.017660;,
      -1.730911;-0.829934; 0.017660;,
      -1.567000;-1.000000; 1.700000;,
      -1.567000;-1.000000; 0.100000;,
      -1.567000;-0.900000; 0.100000;,
      -1.567000;-0.900000; 1.700000;,
      -0.272422;-1.180065; 0.605660;,
      -0.259822;-1.168546; 0.605660;,
      -0.259822;-1.076393; 0.605660;,
      -0.272422;-1.064874; 0.605660;,
      -0.146422;-1.180065; 0.605660;,
      -0.159022;-1.168546; 0.605660;,
      -0.259822;-1.168546; 0.605660;,
      -0.272422;-1.180065; 0.605660;,
      -0.146422;-1.064874; 0.605660;,
      -0.159022;-1.076394; 0.605660;,
      -0.159022;-1.168546; 0.605660;,
      -0.146422;-1.180065; 0.605660;,
      -0.272422;-1.064874; 0.605660;,
      -0.259822;-1.076393; 0.605660;,
      -0.159022;-1.076394; 0.605660;,
      -0.146422;-1.064874; 0.605660;,
      -2.000000;-1.000000; 2.000000;,
      -2.000000; 1.000000; 2.000000;,
      -2.000000; 1.000000; 1.900000;,
      -2.000000;-0.900000; 1.900000;,
      -0.272422;-1.064874; 0.017660;,
      -0.272422;-1.180065; 0.017660;,
      -0.272422;-1.180065; 0.605660;,
      -0.272422;-1.064874; 0.605660;,
      -0.259534;-1.070085; 0.804661;,
      -0.259534;-1.070085; 0.643381;,
      -0.159310;-1.070085; 0.643381;,
      -0.159310;-1.070085; 0.804661;,
      -1.743511;-0.818416; 0.586716;,
      -1.743511;-0.726263; 0.586716;,
      -1.844311;-0.726262; 0.586716;,
      -1.844311;-0.818415; 0.586716;,
      -1.731271;-0.829934; 0.824821;,
      -1.731271;-0.814664; 0.824821;,
      -1.856551;-0.814664; 0.824821;,
      -1.856551;-0.829934; 0.824821;,
      -0.159022;-1.076394; 0.605660;,
      -0.159022;-1.076394; 0.586716;,
      -0.159022;-1.168546; 0.586716;,
      -0.159022;-1.168546; 0.605660;,
      -1.856551;-0.829934; 0.623221;,
      -1.856551;-0.814664; 0.623221;,
      -1.731271;-0.814664; 0.623221;,
      -1.731271;-0.829934; 0.623221;,
      -2.000000;-1.000000; 0.000000;,
      -2.000000;-1.000000; 2.000000;,
      -2.000000;-0.900000; 1.900000;,
      -2.001109;-0.898244; 0.061596;,
      -1.856551;-0.814664; 0.824821;,
      -1.844023;-0.814664; 0.804661;,
      -1.844023;-0.814664; 0.643381;,
      -1.856551;-0.814664; 0.623221;,
      -1.731271;-0.814664; 0.824821;,
      -1.743799;-0.814664; 0.804661;,
      -1.844023;-0.814664; 0.804661;,
      -1.856551;-0.814664; 0.824821;,
      -1.731271;-0.814664; 0.623221;,
      -1.743799;-0.814664; 0.643381;,
      -1.743799;-0.814664; 0.804661;,
      -1.731271;-0.814664; 0.824821;,
      -0.159310;-1.080145; 0.804661;,
      -0.159310;-1.070085; 0.804661;,
      -0.159310;-1.070085; 0.643381;,
      -0.159310;-1.080145; 0.643381;,
      -1.743799;-0.814664; 0.804661;,
      -1.743799;-0.824724; 0.804661;,
      -1.844023;-0.824724; 0.804661;,
      -1.844023;-0.814664; 0.804661;,
      -1.743799;-0.824724; 0.643381;,
      -1.743799;-0.814664; 0.643381;,
      -1.844023;-0.814664; 0.643381;,
      -1.844023;-0.824724; 0.643381;,
      -1.703911;-0.898554; 1.200000;,
      -1.703911;-0.829934; 0.840000;,
      -1.883911;-0.829934; 0.840000;,
      -1.883911;-0.898554; 1.200000;,
      -0.146782;-1.064874; 0.623221;,
      -0.146782;-1.080145; 0.623221;,
      -0.272062;-1.080145; 0.623221;,
      -0.272062;-1.064874; 0.623221;,
      -0.216953;-0.900694; 0.419105;,
      -0.216614;-0.900217; 1.473526;,
       1.999999;-0.900001; 1.900000;,
       1.998868;-0.901736; 0.070525;,
       1.999999;-0.900001; 1.900000;,
      -0.216614;-0.900217; 1.473526;,
      -0.433000;-0.900000; 1.473526;,
      -0.433001;-0.900000; 1.700000;,
      -0.433000;-0.900000; 0.419105;,
      -0.216953;-0.900694; 0.419105;,
       1.998868;-0.901736; 0.070525;,
      -0.433000;-0.900000; 0.100000;,
      -2.001109;-0.898244; 0.061596;,
       1.998868;-0.901736; 0.070525;,
       2.002230; 0.998234; 0.060478;,
      -1.997747; 1.001726; 0.051549;,
      -0.259822;-1.076393; 0.605660;,
      -0.259822;-1.076393; 0.586716;,
      -0.159022;-1.076394; 0.586716;,
      -0.159022;-1.076394; 0.605660;,
      -0.146422;-1.180065; 0.017660;,
      -0.146422;-1.180065; 0.605660;,
      -0.272422;-1.180065; 0.605660;,
      -0.272422;-1.180065; 0.017660;,
      -0.299422;-1.064874; 0.840000;,
      -0.299422;-1.064874; 0.000000;,
      -0.119422;-1.064874; 0.000000;,
      -0.119422;-1.064874; 0.840000;,
       2.000000;-1.000000; 0.000000;,
       1.999999;-1.000001; 2.000000;,
      -0.433001;-1.000000; 1.700000;,
      -0.433000;-1.000000; 0.100000;,
      -2.000000;-1.000000; 2.000000;,
      -2.000000;-1.000000; 0.000000;,
      -1.567000;-1.000000; 0.100000;,
      -1.567000;-1.000000; 1.700000;,
      -2.000000;-1.000000; 0.000000;,
       2.000000;-1.000000; 0.000000;,
      -0.433000;-1.000000; 0.100000;,
      -1.567000;-1.000000; 0.100000;,
       1.999999;-1.000001; 2.000000;,
      -2.000000;-1.000000; 2.000000;,
      -1.567000;-1.000000; 1.700000;,
      -0.433001;-1.000000; 1.700000;,
      -1.862531;-1.072959; 1.937828;,
      -1.862531;-1.072959; 0.000000;,
      -1.704470;-1.072959; 0.000000;,
      -1.704470;-1.072959; 1.937828;,
      -1.743511;-0.726263; 0.586716;,
      -1.743511;-0.726263; 0.605660;,
      -1.844311;-0.726262; 0.605660;,
      -1.844311;-0.726262; 0.586716;,
      -1.743511;-0.818416; 0.605660;,
      -1.743511;-0.818416; 0.586716;,
      -1.844311;-0.818415; 0.586716;,
      -1.844311;-0.818415; 0.605660;,
      -1.730911;-0.829934; 0.605660;,
      -1.743511;-0.818416; 0.605660;,
      -1.844311;-0.818415; 0.605660;,
      -1.856911;-0.829934; 0.605660;,
      -1.856911;-0.829934; 0.605660;,
      -1.844311;-0.818415; 0.605660;,
      -1.844311;-0.726262; 0.605660;,
      -1.856911;-0.714743; 0.605660;,
      -1.856911;-0.714743; 0.605660;,
      -1.844311;-0.726262; 0.605660;,
      -1.743511;-0.726263; 0.605660;,
      -1.730911;-0.714744; 0.605660;,
      -1.730911;-0.714744; 0.605660;,
      -1.743511;-0.726263; 0.605660;,
      -1.743511;-0.818416; 0.605660;,
      -1.730911;-0.829934; 0.605660;,
      -1.856551;-0.814664; 0.623221;,
      -1.844023;-0.814664; 0.643381;,
      -1.743799;-0.814664; 0.643381;,
      -1.731271;-0.814664; 0.623221;,
      -1.856551;-0.829934; 0.824821;,
      -1.856551;-0.814664; 0.824821;,
      -1.856551;-0.814664; 0.623221;,
      -1.856551;-0.829934; 0.623221;,
      -1.743799;-0.814664; 0.643381;,
      -1.743799;-0.824724; 0.643381;,
      -1.743799;-0.824724; 0.804661;,
      -1.743799;-0.814664; 0.804661;,
      -1.901462;-1.000000; 0.000000;,
      -1.862531;-1.072959; 0.000000;,
      -1.862531;-1.072959; 1.937828;,
      -1.901463;-1.000000; 2.000000;,
       2.000000; 1.000000; 0.000000;,
       2.002230; 0.998234; 0.060478;,
       1.998868;-0.901736; 0.070525;,
       2.000000;-1.000000; 0.000000;,
       1.999999;-1.000001; 2.000000;,
       2.000000;-1.000000; 0.000000;,
       1.998868;-0.901736; 0.070525;,
       1.999999;-0.900001; 1.900000;,
       2.000000; 1.000000; 1.900000;,
       1.999999;-0.900001; 1.900000;,
      -2.000000;-0.900000; 1.900000;,
      -2.000000; 1.000000; 1.900000;;
      108;
      4;3,2,1,0;,
      4;7,6,5,4;,
      4;11,10,9,8;,
      4;15,14,13,12;,
      4;19,18,17,16;,
      4;23,22,21,20;,
      4;27,26,25,24;,
      4;31,30,29,28;,
      4;35,34,33,32;,
      4;39,38,37,36;,
      4;43,42,41,40;,
      3;46,45,44;,
      4;50,49,48,47;,
      4;54,53,52,51;,
      4;58,57,56,55;,
      4;62,61,60,59;,
      4;66,65,64,63;,
      4;70,69,68,67;,
      4;74,73,72,71;,
      4;78,77,76,75;,
      4;82,81,80,79;,
      4;86,85,84,83;,
      4;90,89,88,87;,
      4;94,93,92,91;,
      3;97,96,95;,
      4;101,100,99,98;,
      4;105,104,103,102;,
      4;109,108,107,106;,
      4;113,112,111,110;,
      4;117,116,115,114;,
      4;121,120,119,118;,
      4;125,124,123,122;,
      4;129,128,127,126;,
      4;133,132,131,130;,
      4;137,136,135,134;,
      4;141,140,139,138;,
      4;145,144,143,142;,
      3;148,147,146;,
      4;152,151,150,149;,
      4;156,155,154,153;,
      4;160,159,158,157;,
      4;164,163,162,161;,
      4;168,167,166,165;,
      4;172,171,170,169;,
      4;176,175,174,173;,
      4;180,179,178,177;,
      4;184,183,182,181;,
      4;188,187,186,185;,
      4;192,191,190,189;,
      4;196,195,194,193;,
      4;200,199,198,197;,
      4;204,203,202,201;,
      4;208,207,206,205;,
      4;212,211,210,209;,
      4;216,215,214,213;,
      4;220,219,218,217;,
      4;224,223,222,221;,
      4;228,227,226,225;,
      4;232,231,230,229;,
      4;236,235,234,233;,
      4;240,239,238,237;,
      4;244,243,242,241;,
      4;248,247,246,245;,
      4;252,251,250,249;,
      4;256,255,254,253;,
      4;260,259,258,257;,
      4;264,263,262,261;,
      4;268,267,266,265;,
      4;272,271,270,269;,
      4;276,275,274,273;,
      4;280,279,278,277;,
      4;284,283,282,281;,
      4;288,287,286,285;,
      4;292,291,290,289;,
      4;296,295,294,293;,
      4;300,299,298,297;,
      4;304,303,302,301;,
      4;308,307,306,305;,
      4;312,311,310,309;,
      4;316,315,314,313;,
      4;320,319,318,317;,
      4;324,323,322,321;,
      4;328,327,326,325;,
      4;332,331,330,329;,
      4;336,335,334,333;,
      4;340,339,338,337;,
      4;344,343,342,341;,
      4;348,347,346,345;,
      4;352,351,350,349;,
      4;356,355,354,353;,
      4;360,359,358,357;,
      4;364,363,362,361;,
      4;368,367,366,365;,
      4;372,371,370,369;,
      4;376,375,374,373;,
      4;380,379,378,377;,
      4;384,383,382,381;,
      4;388,387,386,385;,
      4;392,391,390,389;,
      4;396,395,394,393;,
      4;400,399,398,397;,
      4;404,403,402,401;,
      4;408,407,406,405;,
      4;412,411,410,409;,
      4;416,415,414,413;,
      4;420,419,418,417;,
      4;424,423,422,421;,
      4;428,427,426,425;;
      MeshNormals { // entry_3 normals
        108;
         0.000004; 1.000000; 0.000000;,
         0.000000; 0.000000; 1.000000;,
        -0.000000; 0.000000;-1.000000;,
        -0.000000; 1.000000; 0.000000;,
         0.000000; 1.000000;-0.000001;,
         0.002120; 0.999998; 0.000510;,
         1.000000; 0.000000;-0.000000;,
         1.000000; 0.000000;-0.000000;,
         1.000000; 0.000000; 0.000000;,
         1.000000; 0.000000; 0.000000;,
         0.000000; 0.000000; 1.000000;,
        -1.000000; 0.000000;-0.000000;,
        -1.000000; 0.000000; 0.000000;,
         0.000646; 0.999813; 0.019314;,
         0.000000;-1.000000; 0.000000;,
        -0.000000;-1.000000; 0.000000;,
         0.000000;-1.000000;-0.000000;,
         0.000000;-1.000000; 0.000000;,
         0.000000; 0.000000;-1.000000;,
         0.000000; 0.000000;-1.000000;,
        -1.000000; 0.000000;-0.000000;,
         0.000000; 1.000000;-0.000000;,
        -0.000000; 0.000000;-1.000000;,
         0.000000;-0.982314; 0.187239;,
        -1.000000; 0.000000;-0.000000;,
        -1.000000; 0.000000; 0.000000;,
        -1.000000; 0.000000; 0.000000;,
        -1.000000; 0.000000;-0.000000;,
        -1.000000; 0.000000;-0.000000;,
         0.002811; 0.999996;-0.000247;,
         0.000945; 0.912054;-0.410070;,
         0.000610; 0.912285; 0.409555;,
         0.001221; 0.911864;-0.410490;,
         0.000436; 1.000000; 0.000337;,
         0.002809; 0.912156; 0.409834;,
         1.000000; 0.000000;-0.000000;,
         1.000000; 0.000000; 0.000000;,
        -1.000000;-0.000000;-0.000000;,
         0.000000; 1.000000; 0.000000;,
         0.000000;-0.000000; 1.000000;,
         1.000000; 0.000000; 0.000000;,
         1.000000; 0.000000; 0.000000;,
        -1.000000; 0.000001; 0.000322;,
         0.001204; 0.999999;-0.000247;,
         1.000000; 0.000000; 0.000000;,
        -1.000000;-0.000001; 0.000322;,
         1.000000; 0.000000;-0.000000;,
         0.000000;-0.000000;-1.000000;,
         0.000000; 0.000000; 1.000000;,
        -1.000000;-0.000000;-0.000000;,
         0.000000; 0.000000; 1.000000;,
         0.000005; 1.000000; 0.000000;,
         0.000000; 0.000000;-1.000000;,
         0.882253;-0.470775; 0.000000;,
         1.000000;-0.000001;-0.000000;,
         0.000000;-0.648593; 0.761136;,
        -0.000000; 1.000000; 0.000000;,
        -1.000000; 0.000001;-0.000000;,
         0.000000; 0.000000;-1.000000;,
        -0.999956; 0.000886; 0.009295;,
        -1.000000; 0.000000;-0.000000;,
        -0.000000; 0.000000;-1.000000;,
         1.000000; 0.000000; 0.000000;,
         0.000000; 0.000000; 1.000000;,
        -0.000000; 0.000000; 1.000000;,
         0.000000;-0.000000; 1.000000;,
         0.000000; 0.000000; 1.000000;,
        -1.000000; 0.000000; 0.000000;,
        -1.000000; 0.000000;-0.000000;,
        -0.000000;-1.000000; 0.000000;,
        -0.000000; 0.000000; 1.000000;,
        -0.000000; 0.000000; 1.000000;,
        -1.000000; 0.000000; 0.000000;,
        -0.000000; 0.000000;-1.000000;,
        -0.999985;-0.005443; 0.000286;,
         0.000000; 1.000000;-0.000000;,
        -0.000000; 1.000000; 0.000000;,
         0.000000; 1.000000; 0.000000;,
        -1.000000; 0.000000; 0.000000;,
         0.000000; 0.000000;-1.000000;,
        -0.000000; 0.000000; 1.000000;,
         0.000000; 0.982314; 0.187239;,
         0.000000; 0.000000;-1.000000;,
         0.000200; 1.000000;-0.000767;,
         0.000144; 1.000000;-0.000820;,
         0.000935; 0.999998; 0.001543;,
        -0.002228; 0.005292; 0.999984;,
        -0.000005;-1.000000; 0.000000;,
        -0.000004;-1.000000; 0.000000;,
        -0.000000;-1.000000; 0.000000;,
        -0.000000;-1.000000;-0.000000;,
        -0.000000;-1.000000; 0.000000;,
        -0.000000;-1.000000;-0.000000;,
        -0.000000;-1.000000; 0.000001;,
         0.000000;-1.000000; 0.000000;,
        -0.000005;-1.000000; 0.000000;,
         0.000005; 1.000000; 0.000000;,
        -0.000000; 0.000000; 1.000000;,
         0.000000; 0.000000; 1.000000;,
         0.000000; 0.000000; 1.000000;,
         0.000000;-0.000000; 1.000000;,
         0.000000; 1.000000; 0.000000;,
        -1.000000; 0.000000; 0.000000;,
        -1.000000; 0.000000;-0.000000;,
        -0.882254;-0.470774;-0.000000;,
         0.999970;-0.000882;-0.007729;,
         0.999984; 0.005665;-0.000298;,
         0.000000; 0.000000;-1.000000;;
        108;
        4;0,0,0,0;,
        4;1,1,1,1;,
        4;2,2,2,2;,
        4;3,3,3,3;,
        4;4,4,4,4;,
        4;5,5,5,5;,
        4;6,6,6,6;,
        4;7,7,7,7;,
        4;8,8,8,8;,
        4;9,9,9,9;,
        4;10,10,10,10;,
        3;11,11,11;,
        4;12,12,12,12;,
        4;13,13,13,13;,
        4;14,14,14,14;,
        4;15,15,15,15;,
        4;16,16,16,16;,
        4;17,17,17,17;,
        4;18,18,18,18;,
        4;19,19,19,19;,
        4;20,20,20,20;,
        4;21,21,21,21;,
        4;22,22,22,22;,
        4;23,23,23,23;,
        3;24,24,24;,
        4;25,25,25,25;,
        4;26,26,26,26;,
        4;27,27,27,27;,
        4;28,28,28,28;,
        4;29,29,29,29;,
        4;30,30,30,30;,
        4;31,31,31,31;,
        4;32,32,32,32;,
        4;33,33,33,33;,
        4;34,34,34,34;,
        4;35,35,35,35;,
        4;36,36,36,36;,
        3;37,37,37;,
        4;38,38,38,38;,
        4;39,39,39,39;,
        4;40,40,40,40;,
        4;41,41,41,41;,
        4;42,42,42,42;,
        4;43,43,43,43;,
        4;44,44,44,44;,
        4;45,45,45,45;,
        4;46,46,46,46;,
        4;47,47,47,47;,
        4;48,48,48,48;,
        4;49,49,49,49;,
        4;50,50,50,50;,
        4;51,51,51,51;,
        4;52,52,52,52;,
        4;53,53,53,53;,
        4;54,54,54,54;,
        4;55,55,55,55;,
        4;56,56,56,56;,
        4;57,57,57,57;,
        4;58,58,58,58;,
        4;59,59,59,59;,
        4;60,60,60,60;,
        4;61,61,61,61;,
        4;62,62,62,62;,
        4;63,63,63,63;,
        4;64,64,64,64;,
        4;65,65,65,65;,
        4;66,66,66,66;,
        4;67,67,67,67;,
        4;68,68,68,68;,
        4;69,69,69,69;,
        4;70,70,70,70;,
        4;71,71,71,71;,
        4;72,72,72,72;,
        4;73,73,73,73;,
        4;74,74,74,74;,
        4;75,75,75,75;,
        4;76,76,76,76;,
        4;77,77,77,77;,
        4;78,78,78,78;,
        4;79,79,79,79;,
        4;80,80,80,80;,
        4;81,81,81,81;,
        4;82,82,82,82;,
        4;83,83,83,83;,
        4;84,84,84,84;,
        4;85,85,85,85;,
        4;86,86,86,86;,
        4;87,87,87,87;,
        4;88,88,88,88;,
        4;89,89,89,89;,
        4;90,90,90,90;,
        4;91,91,91,91;,
        4;92,92,92,92;,
        4;93,93,93,93;,
        4;94,94,94,94;,
        4;95,95,95,95;,
        4;96,96,96,96;,
        4;97,97,97,97;,
        4;98,98,98,98;,
        4;99,99,99,99;,
        4;100,100,100,100;,
        4;101,101,101,101;,
        4;102,102,102,102;,
        4;103,103,103,103;,
        4;104,104,104,104;,
        4;105,105,105,105;,
        4;106,106,106,106;,
        4;107,107,107,107;;
      } // End of entry_3 normals
      MeshTextureCoords { // entry_3 UV coordinates
        429;
         0.283203; 0.222656;,
         0.283203; 0.113281;,
         0.259766; 0.113281;,
         0.259766; 0.222656;,
         0.087891; 0.875000;,
         0.082031; 0.878906;,
         0.125000; 0.878906;,
         0.119141; 0.875000;,
         0.082031; 0.824219;,
         0.087891; 0.830078;,
         0.119141; 0.830078;,
         0.125000; 0.824219;,
         0.998047; 0.183594;,
         0.998047; 0.017578;,
         0.962891; 0.017578;,
         0.962891; 0.183594;,
         0.479492; 0.773438;,
         0.189453; 0.796875;,
         0.054688; 0.796875;,
         0.003906; 0.773438;,
         0.054688; 0.796875;,
         0.054688; 0.988281;,
         0.003906; 0.992188;,
         0.003906; 0.773438;,
         0.972656; 0.587891;,
         0.996094; 0.712891;,
         0.996094; 1.000000;,
         0.972656; 1.000000;,
         0.304688; 0.113281;,
         0.283203; 0.113281;,
         0.283203; 0.222656;,
         0.304688; 0.222656;,
         0.074219; 0.974609;,
         0.083984; 0.964844;,
         0.083984; 0.929688;,
         0.074219; 0.919922;,
         0.082031; 0.878906;,
         0.087891; 0.875000;,
         0.087891; 0.830078;,
         0.082031; 0.824219;,
         0.083984; 0.929688;,
         0.083984; 0.964844;,
         0.123047; 0.964844;,
         0.123047; 0.929688;,
         0.247729; 0.276785;,
         0.298511; 0.247488;,
         0.196948; 0.247488;,
         0.074219; 0.974609;,
         0.083984; 0.964844;,
         0.083984; 0.929688;,
         0.074219; 0.919922;,
         0.054688; 0.988281;,
         0.189453; 0.988281;,
         0.479492; 0.992188;,
         0.003906; 0.992188;,
         0.134766; 0.816406;,
         0.125000; 0.824219;,
         0.125000; 0.878906;,
         0.134766; 0.890625;,
         0.070312; 0.816406;,
         0.082031; 0.824219;,
         0.125000; 0.824219;,
         0.134766; 0.816406;,
         0.070312; 0.890625;,
         0.082031; 0.878906;,
         0.082031; 0.824219;,
         0.070312; 0.816406;,
         0.134766; 0.890625;,
         0.125000; 0.878906;,
         0.082031; 0.878906;,
         0.070312; 0.890625;,
         0.479688; 0.284766;,
         0.479688; 0.523047;,
         0.003125; 0.523047;,
         0.003125; 0.284766;,
         0.042969; 0.191406;,
         0.158203; 0.191406;,
         0.158203; 0.066406;,
         0.042969; 0.066406;,
         0.163745; 0.263113;,
         0.130542; 0.263113;,
         0.003589; 0.276785;,
         0.247729; 0.276785;,
         0.687116; 0.278072;,
         0.687116; 0.215572;,
         0.583601; 0.215572;,
         0.583601; 0.278072;,
         0.998047; 0.017578;,
         0.998047; 0.003906;,
         0.962891; 0.003906;,
         0.962891; 0.017578;,
         0.998047; 0.255859;,
         0.998047; 0.183594;,
         0.962891; 0.183594;,
         0.962891; 0.255859;,
         0.196948; 0.247488;,
         0.163745; 0.263113;,
         0.247729; 0.276785;,
         0.304688; 0.113281;,
         0.283203; 0.113281;,
         0.283203; 0.222656;,
         0.304688; 0.222656;,
         0.972656; 0.587891;,
         0.996094; 0.712891;,
         0.996094; 1.000000;,
         0.972656; 1.000000;,
         0.366870; 0.263113;,
         0.333667; 0.263113;,
         0.247729; 0.276785;,
         0.466479; 0.276785;,
         0.062500; 0.898438;,
         0.070312; 0.890625;,
         0.070312; 0.816406;,
         0.062500; 0.810547;,
         0.544538; 0.278072;,
         0.544538; 0.215572;,
         0.511335; 0.215572;,
         0.511335; 0.278072;,
         0.796491; 0.278072;,
         0.796491; 0.215572;,
         0.759382; 0.215572;,
         0.759382; 0.278072;,
         0.724226; 0.278072;,
         0.724226; 0.215572;,
         0.687116; 0.215572;,
         0.687116; 0.278072;,
         0.583601; 0.278072;,
         0.583601; 0.215572;,
         0.544538; 0.215572;,
         0.544538; 0.278072;,
         0.965071; 0.992908;,
         0.965071; 0.670642;,
         0.968977; 0.670642;,
         0.968977; 0.992908;,
         0.472273; 0.215572;,
         0.472273; 0.278072;,
         0.511335; 0.278072;,
         0.511335; 0.215572;,
         0.125000; 0.824219;,
         0.119141; 0.830078;,
         0.119141; 0.875000;,
         0.125000; 0.878906;,
         0.062500; 0.898438;,
         0.070312; 0.890625;,
         0.070312; 0.816406;,
         0.062500; 0.810547;,
         0.333667; 0.263113;,
         0.298511; 0.247488;,
         0.247729; 0.276785;,
         0.971543; 0.264273;,
         0.971543; 0.586539;,
         0.963731; 0.586539;,
         0.963731; 0.264273;,
         0.960156; 0.287109;,
         0.483594; 0.287109;,
         0.483594; 0.523438;,
         0.960156; 0.523438;,
         0.132812; 0.919922;,
         0.123047; 0.929688;,
         0.123047; 0.964844;,
         0.132812; 0.974609;,
         0.238281; 0.222656;,
         0.259766; 0.222656;,
         0.259766; 0.113281;,
         0.238281; 0.113281;,
         0.124239; 0.634701;,
         0.124239; 0.608900;,
         0.111855; 0.584132;,
         0.111855; 0.660501;,
         0.759382; 0.278072;,
         0.759382; 0.215572;,
         0.724226; 0.215572;,
         0.724226; 0.278072;,
         0.998047; 0.269531;,
         0.974609; 0.269531;,
         0.974609; 0.560547;,
         0.998047; 0.685547;,
         0.076910; 0.581057;,
         0.076910; 0.657426;,
         0.088262; 0.631625;,
         0.088262; 0.605825;,
         0.142578; 0.810547;,
         0.134766; 0.816406;,
         0.134766; 0.890625;,
         0.142578; 0.898438;,
         0.609955; 0.002479;,
         0.484955; 0.002479;,
         0.484955; 0.018104;,
         0.609955; 0.018104;,
         0.358001; 0.002479;,
         0.231048; 0.002479;,
         0.231048; 0.018104;,
         0.358001; 0.018104;,
         0.003589; 0.247488;,
         0.003589; 0.276785;,
         0.130542; 0.263113;,
         0.095386; 0.247488;,
         0.062500; 0.810547;,
         0.070312; 0.816406;,
         0.134766; 0.816406;,
         0.142578; 0.810547;,
         0.083984; 0.964844;,
         0.074219; 0.974609;,
         0.132812; 0.974609;,
         0.123047; 0.964844;,
         0.160156; 0.697266;,
         0.144531; 0.669922;,
         0.082031; 0.669922;,
         0.068359; 0.697266;,
         0.457031; 0.078125;,
         0.457031; 0.060547;,
         0.228516; 0.060547;,
         0.228516; 0.078125;,
         0.029319; 0.009444;,
         0.223216; 0.009444;,
         0.213758; 0.018903;,
         0.029319; 0.018903;,
         0.064453; 0.708984;,
         0.080078; 0.746094;,
         0.140625; 0.746094;,
         0.156250; 0.708984;,
         0.087891; 0.830078;,
         0.087891; 0.875000;,
         0.119141; 0.875000;,
         0.119141; 0.830078;,
         0.466479; 0.247488;,
         0.400073; 0.247488;,
         0.366870; 0.263113;,
         0.466479; 0.276785;,
         0.998047; 0.017578;,
         0.998047; 0.003906;,
         0.962891; 0.003906;,
         0.962891; 0.017578;,
         0.005673; 0.231716;,
         0.015132; 0.220486;,
         0.201935; 0.220486;,
         0.199570; 0.231716;,
         0.998047; 0.269531;,
         0.974609; 0.269531;,
         0.974609; 0.560547;,
         0.998047; 0.685547;,
         0.042969; 0.191406;,
         0.158203; 0.191406;,
         0.158203; 0.066406;,
         0.042969; 0.066406;,
         0.484955; 0.002479;,
         0.358001; 0.002479;,
         0.358001; 0.018104;,
         0.484955; 0.018104;,
         0.066406; 0.982422;,
         0.074219; 0.974609;,
         0.074219; 0.919922;,
         0.066406; 0.912109;,
         0.140625; 0.982422;,
         0.132812; 0.974609;,
         0.074219; 0.974609;,
         0.066406; 0.982422;,
         0.140625; 0.912109;,
         0.132812; 0.919922;,
         0.132812; 0.974609;,
         0.140625; 0.982422;,
         0.066406; 0.912109;,
         0.074219; 0.919922;,
         0.132812; 0.919922;,
         0.140625; 0.912109;,
         0.005673; 0.037819;,
         0.199570; 0.037819;,
         0.199570; 0.051825;,
         0.015132; 0.051825;,
         0.238281; 0.222656;,
         0.259766; 0.222656;,
         0.259766; 0.113281;,
         0.238281; 0.113281;,
         0.087891; 0.830078;,
         0.087891; 0.875000;,
         0.119141; 0.875000;,
         0.119141; 0.830078;,
         0.083984; 0.929688;,
         0.083984; 0.964844;,
         0.123047; 0.964844;,
         0.123047; 0.929688;,
         0.062500; 0.810547;,
         0.070312; 0.816406;,
         0.134766; 0.816406;,
         0.142578; 0.810547;,
         0.132812; 0.919922;,
         0.123047; 0.929688;,
         0.123047; 0.964844;,
         0.132812; 0.974609;,
         0.142578; 0.898438;,
         0.134766; 0.890625;,
         0.070312; 0.890625;,
         0.062500; 0.898438;,
         0.005673; 0.231716;,
         0.005673; 0.037819;,
         0.015132; 0.051825;,
         0.015132; 0.220486;,
         0.134766; 0.816406;,
         0.125000; 0.824219;,
         0.125000; 0.878906;,
         0.134766; 0.890625;,
         0.070312; 0.816406;,
         0.082031; 0.824219;,
         0.125000; 0.824219;,
         0.134766; 0.816406;,
         0.070312; 0.890625;,
         0.082031; 0.878906;,
         0.082031; 0.824219;,
         0.070312; 0.816406;,
         0.125000; 0.824219;,
         0.119141; 0.830078;,
         0.119141; 0.875000;,
         0.125000; 0.878906;,
         0.082031; 0.824219;,
         0.087891; 0.830078;,
         0.119141; 0.830078;,
         0.125000; 0.824219;,
         0.087891; 0.875000;,
         0.082031; 0.878906;,
         0.125000; 0.878906;,
         0.119141; 0.875000;,
         0.998047; 0.255859;,
         0.998047; 0.183594;,
         0.962891; 0.183594;,
         0.962891; 0.255859;,
         0.142578; 0.898438;,
         0.134766; 0.890625;,
         0.070312; 0.890625;,
         0.062500; 0.898438;,
         0.214844; 0.951172;,
         0.214844; 0.824219;,
         0.479492; 0.773438;,
         0.479492; 0.992188;,
         0.479492; 0.773438;,
         0.214844; 0.824219;,
         0.189453; 0.824219;,
         0.189453; 0.796875;,
         0.189453; 0.951172;,
         0.214844; 0.951172;,
         0.479492; 0.992188;,
         0.189453; 0.988281;,
         0.485107; 0.992188;,
         0.961670; 0.992188;,
         0.961670; 0.767578;,
         0.485107; 0.765625;,
         0.074219; 0.919922;,
         0.083984; 0.929688;,
         0.123047; 0.929688;,
         0.132812; 0.919922;,
         0.283203; 0.222656;,
         0.283203; 0.113281;,
         0.259766; 0.113281;,
         0.259766; 0.222656;,
         0.998047; 0.183594;,
         0.998047; 0.017578;,
         0.962891; 0.017578;,
         0.962891; 0.183594;,
         0.478516; 0.767578;,
         0.478516; 0.529297;,
         0.189453; 0.564453;,
         0.189453; 0.753906;,
         0.001953; 0.529297;,
         0.001953; 0.767578;,
         0.054688; 0.753906;,
         0.054688; 0.564453;,
         0.001953; 0.767578;,
         0.478516; 0.767578;,
         0.189453; 0.753906;,
         0.054688; 0.753906;,
         0.478516; 0.529297;,
         0.001953; 0.529297;,
         0.054688; 0.564453;,
         0.189453; 0.564453;,
         0.457031; 0.042969;,
         0.228516; 0.042969;,
         0.228516; 0.060547;,
         0.457031; 0.060547;,
         0.083984; 0.964844;,
         0.074219; 0.974609;,
         0.132812; 0.974609;,
         0.123047; 0.964844;,
         0.074219; 0.919922;,
         0.083984; 0.929688;,
         0.123047; 0.929688;,
         0.132812; 0.919922;,
         0.066406; 0.912109;,
         0.074219; 0.919922;,
         0.132812; 0.919922;,
         0.140625; 0.912109;,
         0.140625; 0.912109;,
         0.132812; 0.919922;,
         0.132812; 0.974609;,
         0.140625; 0.982422;,
         0.140625; 0.982422;,
         0.132812; 0.974609;,
         0.074219; 0.974609;,
         0.066406; 0.982422;,
         0.066406; 0.982422;,
         0.074219; 0.974609;,
         0.074219; 0.919922;,
         0.066406; 0.912109;,
         0.134766; 0.890625;,
         0.125000; 0.878906;,
         0.082031; 0.878906;,
         0.070312; 0.890625;,
         0.142578; 0.810547;,
         0.134766; 0.816406;,
         0.134766; 0.890625;,
         0.142578; 0.898438;,
         0.082031; 0.878906;,
         0.087891; 0.875000;,
         0.087891; 0.830078;,
         0.082031; 0.824219;,
         0.228516; 0.023438;,
         0.228516; 0.042969;,
         0.457031; 0.042969;,
         0.457031; 0.023438;,
         0.029319; 0.205706;,
         0.029319; 0.198612;,
         0.213758; 0.198612;,
         0.223216; 0.205706;,
         0.223216; 0.009444;,
         0.223216; 0.205706;,
         0.213758; 0.198612;,
         0.213758; 0.018903;,
         0.960938; 0.533203;,
         0.960938; 0.759766;,
         0.484375; 0.759766;,
         0.484375; 0.533203;;
      } // End of entry_3 UV coordinates
      MeshMaterialList { // entry_3 material list
        1;
        108;
        0,
        0,
        0,
        0,
        0,
        0,
        0,
        0,
        0,
        0,
        0,
        0,
        0,
        0,
        0,
        0,
        0,
        0,
        0,
        0,
        0,
        0,
        0,
        0,
        0,
        0,
        0,
        0,
        0,
        0,
        0,
        0,
        0,
        0,
        0,
        0,
        0,
        0,
        0,
        0,
        0,
        0,
        0,
        0,
        0,
        0,
        0,
        0,
        0,
        0,
        0,
        0,
        0,
        0,
        0,
        0,
        0,
        0,
        0,
        0,
        0,
        0,
        0,
        0,
        0,
        0,
        0,
        0,
        0,
        0,
        0,
        0,
        0,
        0,
        0,
        0,
        0,
        0,
        0,
        0,
        0,
        0,
        0,
        0,
        0,
        0,
        0,
        0,
        0,
        0,
        0,
        0,
        0,
        0,
        0,
        0,
        0,
        0,
        0,
        0,
        0,
        0,
        0,
        0,
        0,
        0,
        0,
        0;;
        Material entry_3 {
           0.640000; 0.640000; 0.640000; 1.000000;;
           96.078431;
           0.050000; 0.050000; 0.050000;;
           0.000000; 0.000000; 0.000000;;
          TextureFilename {"Stahl Hulle_COLOR.png";}
        }
      } // End of entry_3 material list
    } // End of entry_3 mesh
    Frame entry_3_2_000 {
      FrameTransformMatrix {
         1.000000, 0.000000, 0.000000, 0.000000,
         0.000000, 1.000000, 0.000000, 0.000000,
         0.000000, 0.000000, 1.000000, 0.000000,
        -1.795815,-0.770536, 0.602155, 1.000000;;
      }
      Mesh { // entry_3_2_000 mesh
        20;
         0.042336;-0.038704; 0.013202;,
         0.042336; 0.038704; 0.013202;,
        -0.042336; 0.038704; 0.013202;,
        -0.042336;-0.038704; 0.013202;,
         0.042336; 0.038704; 0.013202;,
         0.042336;-0.038704; 0.013202;,
         0.042336;-0.038704;-0.013202;,
         0.042336; 0.038704;-0.013202;,
        -0.042336; 0.038704; 0.013202;,
         0.042336; 0.038704; 0.013202;,
         0.042336; 0.038704;-0.013202;,
        -0.042336; 0.038704;-0.013202;,
        -0.042336; 0.038704;-0.013202;,
        -0.042336;-0.038704;-0.013202;,
        -0.042336;-0.038704; 0.013202;,
        -0.042336; 0.038704; 0.013202;,
        -0.042336;-0.038704;-0.013202;,
         0.042336;-0.038704;-0.013202;,
         0.042336;-0.038704; 0.013202;,
        -0.042336;-0.038704; 0.013202;;
        5;
        4;3,2,1,0;,
        4;7,6,5,4;,
        4;11,10,9,8;,
        4;15,14,13,12;,
        4;19,18,17,16;;
        MeshNormals { // entry_3_2_000 normals
          5;
          -0.000000; 0.000000; 1.000000;,
           1.000000;-0.000000; 0.000000;,
           0.000003; 1.000000; 0.000000;,
          -1.000000; 0.000000; 0.000000;,
          -0.000003;-1.000000; 0.000000;;
          5;
          4;0,0,0,0;,
          4;1,1,1,1;,
          4;2,2,2,2;,
          4;3,3,3,3;,
          4;4,4,4,4;;
        } // End of entry_3_2_000 normals
        MeshTextureCoords { // entry_3_2_000 UV coordinates
          20;
           0.147697; 0.881761;,
           0.147697; 0.938446;,
           0.209701; 0.938446;,
           0.209701; 0.881761;,
           0.712950; 0.002658;,
           0.646479; 0.002657;,
           0.646479; 0.025331;,
           0.712950; 0.025331;,
           0.785658; 0.002658;,
           0.712950; 0.002658;,
           0.712950; 0.025331;,
           0.785658; 0.025331;,
           0.785658; 0.025331;,
           0.852128; 0.025331;,
           0.852129; 0.002658;,
           0.785658; 0.002658;,
           0.852128; 0.025331;,
           0.924836; 0.025332;,
           0.924836; 0.002659;,
           0.852129; 0.002658;;
        } // End of entry_3_2_000 UV coordinates
        MeshMaterialList { // entry_3_2_000 material list
          1;
          5;
          0,
          0,
          0,
          0,
          0;;
          Material entry_3 {
             0.640000; 0.640000; 0.640000; 1.000000;;
             96.078431;
             0.050000; 0.050000; 0.050000;;
             0.000000; 0.000000; 0.000000;;
            TextureFilename {"Stahl Hulle_COLOR.png";}
          }
        } // End of entry_3_2_000 material list
      } // End of entry_3_2_000 mesh
    } // End of entry_3_2_000
    Frame entry_3_2_001 {
      FrameTransformMatrix {
         1.000000, 0.000000, 0.000000, 0.000000,
         0.000000, 1.000000, 0.000000, 0.000000,
         0.000000, 0.000000, 1.000000, 0.000000,
        -0.207619,-1.123915, 0.602155, 1.000000;;
      }
      Mesh { // entry_3_2_001 mesh
        20;
        -0.042336; 0.038704; 0.013202;,
        -0.042336;-0.038704; 0.013202;,
         0.042336;-0.038704; 0.013202;,
         0.042336; 0.038704; 0.013202;,
        -0.042336;-0.038704; 0.013202;,
        -0.042336; 0.038704; 0.013202;,
        -0.042336; 0.038704;-0.013202;,
        -0.042336;-0.038704;-0.013202;,
         0.042336;-0.038704; 0.013202;,
        -0.042336;-0.038704; 0.013202;,
        -0.042336;-0.038704;-0.013202;,
         0.042336;-0.038704;-0.013202;,
         0.042336;-0.038704;-0.013202;,
         0.042336; 0.038704;-0.013202;,
         0.042336; 0.038704; 0.013202;,
         0.042336;-0.038704; 0.013202;,
         0.042336; 0.038704;-0.013202;,
        -0.042336; 0.038704;-0.013202;,
        -0.042336; 0.038704; 0.013202;,
         0.042336; 0.038704; 0.013202;;
        5;
        4;3,2,1,0;,
        4;7,6,5,4;,
        4;11,10,9,8;,
        4;15,14,13,12;,
        4;19,18,17,16;;
        MeshNormals { // entry_3_2_001 normals
          5;
           0.000000; 0.000000; 1.000000;,
          -1.000000; 0.000000; 0.000000;,
          -0.000003;-1.000000; 0.000000;,
           1.000000; 0.000000; 0.000000;,
           0.000003; 1.000000; 0.000000;;
          5;
          4;0,0,0,0;,
          4;1,1,1,1;,
          4;2,2,2,2;,
          4;3,3,3,3;,
          4;4,4,4,4;;
        } // End of entry_3_2_001 normals
        MeshTextureCoords { // entry_3_2_001 UV coordinates
          20;
           0.147697; 0.881761;,
           0.147697; 0.938446;,
           0.209701; 0.938446;,
           0.209701; 0.881761;,
           0.712950; 0.002658;,
           0.646479; 0.002657;,
           0.646479; 0.025331;,
           0.712950; 0.025331;,
           0.785658; 0.002658;,
           0.712950; 0.002658;,
           0.712950; 0.025331;,
           0.785658; 0.025331;,
           0.785658; 0.025331;,
           0.852128; 0.025331;,
           0.852129; 0.002658;,
           0.785658; 0.002658;,
           0.852128; 0.025331;,
           0.924836; 0.025332;,
           0.924836; 0.002659;,
           0.852129; 0.002658;;
        } // End of entry_3_2_001 UV coordinates
        MeshMaterialList { // entry_3_2_001 material list
          1;
          5;
          0,
          0,
          0,
          0,
          0;;
          Material entry_3 {
             0.640000; 0.640000; 0.640000; 1.000000;;
             96.078431;
             0.050000; 0.050000; 0.050000;;
             0.000000; 0.000000; 0.000000;;
            TextureFilename {"Stahl Hulle_COLOR.png";}
          }
        } // End of entry_3_2_001 material list
      } // End of entry_3_2_001 mesh
    } // End of entry_3_2_001
    Frame entry_3_door {
      FrameTransformMatrix {
         1.000000, 0.000000, 0.000000, 0.000000,
         0.000000, 1.000000, 0.000000, 0.000000,
         0.000000, 0.000000, 1.000000, 0.000000,
        -0.871494,-0.907801, 0.930876, 1.000000;;
      }
      Mesh { // entry_3_door mesh
        64;
         0.690879; 0.004674;-0.498629;,
        -0.595375; 0.005369;-0.498629;,
        -0.595382; 0.005150;-0.173443;,
         0.690985; 0.005150;-0.173443;,
        -0.484671;-0.040430; 0.424540;,
        -0.595384; 0.005368; 0.530563;,
        -0.595385; 0.005152; 0.203261;,
        -0.484672;-0.040429; 0.309285;,
        -0.595375; 0.005369;-0.498629;,
        -0.484663;-0.040429;-0.393662;,
        -0.484667;-0.040430;-0.278409;,
        -0.595382; 0.005150;-0.173443;,
        -0.595384; 0.005368; 0.530563;,
        -0.484671;-0.040430; 0.424540;,
         0.691173;-0.040661; 0.424540;,
         0.691210; 0.005151; 0.530563;,
        -0.595382; 0.005150;-0.173443;,
        -0.484667;-0.040430;-0.278409;,
         0.690951;-0.041008;-0.278409;,
         0.690985; 0.005150;-0.173443;,
        -0.484663;-0.040429;-0.393662;,
        -0.595375; 0.005369;-0.498629;,
         0.690879; 0.004674;-0.498629;,
         0.690917;-0.041065;-0.393663;,
         0.691095; 0.005152; 0.203261;,
        -0.595385; 0.005152; 0.203261;,
        -0.595384; 0.005368; 0.530563;,
         0.691210; 0.005151; 0.530563;,
        -0.484667;-0.040430;-0.278409;,
        -0.484663;-0.040429;-0.393662;,
         0.690917;-0.041065;-0.393663;,
         0.690951;-0.041008;-0.278409;,
        -0.484672;-0.040429; 0.309285;,
        -0.595385; 0.005152; 0.203261;,
         0.691095; 0.005152; 0.203261;,
         0.691134;-0.040718; 0.309284;,
        -0.484671;-0.040430; 0.424540;,
        -0.484672;-0.040429; 0.309285;,
         0.691134;-0.040718; 0.309284;,
         0.691173;-0.040661; 0.424540;,
         0.451539; 0.060827; 0.769124;,
         0.451540; 0.060827;-0.830876;,
        -0.753576; 0.060827;-0.830876;,
        -0.753576; 0.060827; 0.769124;,
        -0.753576; 0.010175;-0.830876;,
        -0.753576; 0.060827;-0.830876;,
         0.451540; 0.060827;-0.830876;,
         0.451540; 0.010175;-0.830876;,
         0.451539; 0.010174; 0.769124;,
         0.451539; 0.060827; 0.769124;,
        -0.753576; 0.060827; 0.769124;,
        -0.753576; 0.010175; 0.769124;,
         0.451540; 0.010175;-0.830876;,
         0.451540; 0.060827;-0.830876;,
         0.451539; 0.060827; 0.769124;,
         0.451539; 0.010174; 0.769124;,
        -0.753576; 0.010175; 0.769124;,
        -0.753576; 0.060827; 0.769124;,
        -0.753576; 0.060827;-0.830876;,
        -0.753576; 0.010175;-0.830876;,
        -0.753576; 0.010175; 0.769124;,
        -0.753576; 0.010175;-0.830876;,
         0.451540; 0.010175;-0.830876;,
         0.451539; 0.010174; 0.769124;;
        16;
        4;3,2,1,0;,
        4;7,6,5,4;,
        4;11,10,9,8;,
        4;15,14,13,12;,
        4;19,18,17,16;,
        4;23,22,21,20;,
        4;27,26,25,24;,
        4;31,30,29,28;,
        4;35,34,33,32;,
        4;39,38,37,36;,
        4;43,42,41,40;,
        4;47,46,45,44;,
        4;51,50,49,48;,
        4;55,54,53,52;,
        4;59,58,57,56;,
        4;63,62,61,60;;
        MeshNormals { // entry_3_door normals
          16;
           0.000270; 1.000000;-0.000396;,
          -0.381473;-0.924380; 0.000452;,
          -0.381467;-0.924382;-0.000469;,
          -0.000167;-0.918026; 0.396520;,
          -0.000215;-0.916371; 0.400330;,
          -0.000496;-0.916747;-0.399468;,
           0.000084; 1.000000;-0.000328;,
          -0.000517;-1.000000; 0.000246;,
          -0.000108;-0.918263;-0.395970;,
          -0.000221;-1.000000; 0.000246;,
           0.000000; 1.000000; 0.000000;,
          -0.000000; 0.000000;-1.000000;,
          -0.000000; 0.000000; 1.000000;,
           1.000000; 0.000000; 0.000000;,
          -1.000000; 0.000000;-0.000000;,
          -0.000000;-1.000000;-0.000000;;
          16;
          4;0,0,0,0;,
          4;1,1,1,1;,
          4;2,2,2,2;,
          4;3,3,3,3;,
          4;4,4,4,4;,
          4;5,5,5,5;,
          4;6,6,6,6;,
          4;7,7,7,7;,
          4;8,8,8,8;,
          4;9,9,9,9;,
          4;10,10,10,10;,
          4;11,11,11,11;,
          4;12,12,12,12;,
          4;13,13,13,13;,
          4;14,14,14,14;,
          4;15,15,15,15;;
        } // End of entry_3_door normals
        MeshTextureCoords { // entry_3_door UV coordinates
          64;
           0.388672; 0.238281;,
           0.388672; 0.093750;,
           0.371094; 0.093750;,
           0.371094; 0.238281;,
           0.832031; 0.246094;,
           0.806641; 0.275391;,
           0.884766; 0.275391;,
           0.859375; 0.246094;,
           0.949219; 0.246094;,
           0.923828; 0.216797;,
           0.896484; 0.216797;,
           0.871094; 0.246094;,
           0.445312; 0.101562;,
           0.427734; 0.101562;,
           0.427734; 0.240234;,
           0.445312; 0.238281;,
           0.371094; 0.093750;,
           0.351562; 0.093750;,
           0.351562; 0.238281;,
           0.371094; 0.238281;,
           0.333984; 0.093750;,
           0.316406; 0.093750;,
           0.316406; 0.238281;,
           0.333984; 0.238281;,
           0.460938; 0.238281;,
           0.460938; 0.101562;,
           0.445312; 0.101562;,
           0.445312; 0.238281;,
           0.351562; 0.093750;,
           0.333984; 0.093750;,
           0.333984; 0.238281;,
           0.351562; 0.238281;,
           0.412109; 0.101562;,
           0.394531; 0.101562;,
           0.394531; 0.238281;,
           0.412109; 0.238281;,
           0.427734; 0.101562;,
           0.412109; 0.101562;,
           0.412109; 0.238281;,
           0.427734; 0.240234;,
           0.804688; 0.197266;,
           0.638672; 0.197266;,
           0.638672; 0.031250;,
           0.804688; 0.031250;,
           0.839844; 0.197266;,
           0.822266; 0.197266;,
           0.822266; 0.048828;,
           0.839844; 0.048828;,
           0.894531; 0.062500;,
           0.912109; 0.062500;,
           0.912109; 0.210938;,
           0.894531; 0.210938;,
           0.888672; 0.210938;,
           0.873047; 0.210938;,
           0.873047; 0.062500;,
           0.888672; 0.062500;,
           0.845703; 0.052734;,
           0.861328; 0.052734;,
           0.861328; 0.201172;,
           0.845703; 0.201172;,
           0.630859; 0.199219;,
           0.466797; 0.199219;,
           0.466797; 0.033203;,
           0.630859; 0.033203;;
        } // End of entry_3_door UV coordinates
        MeshMaterialList { // entry_3_door material list
          1;
          16;
          0,
          0,
          0,
          0,
          0,
          0,
          0,
          0,
          0,
          0,
          0,
          0,
          0,
          0,
          0,
          0;;
          Material entry_3 {
             0.640000; 0.640000; 0.640000; 1.000000;;
             96.078431;
             0.050000; 0.050000; 0.050000;;
             0.000000; 0.000000; 0.000000;;
            TextureFilename {"Stahl Hulle_COLOR.png";}
          }
        } // End of entry_3_door material list
      } // End of entry_3_door mesh
    } // End of entry_3_door
  } // End of entry_3
} // End of Root
