3
BookShelf 3 4.6 0.01 1 1 1 0 0 0 ../../Models/bookshelf/BookCaseColor.obj
Photo 0 4.7 3 0.02 0.015 0.02 0 0 0 ../../Models/EiffelTowerFrame/EiffelTowerFrame.obj
Lumiere 0.0 0.0 -5 0.002 0.002 0.002 0 0 0 ../../Models/lampCeiling/lmp030_mesh.obj
